<?xml version="1.0" encoding="utf-8"?>
<!-- Generator: Adobe Illustrator 22.1.0, SVG Export Plug-In . SVG Version: 6.00 Build 0)  -->
<svg version="1.1" id="Calque_1" xmlns="http://www.w3.org/2000/svg" xmlns:xlink="http://www.w3.org/1999/xlink" x="0px" y="0px"
	 viewBox="0 0 1460.3 272.7" style="enable-background:new 0 0 1460.3 272.7;" xml:space="preserve">
<style type="text/css">
	.st0{fill:#EE233D;}
	.st1{fill:#134FA3;}
	.st2{fill:none;stroke:#134FA3;stroke-width:22;stroke-linecap:round;stroke-linejoin:round;}
	.st3{fill:none;stroke:#468CCB;stroke-width:27.27;stroke-linecap:round;stroke-linejoin:round;}
	.st4{fill:#6FB94B;}
	.st5{fill:none;stroke:#010101;stroke-width:0.52;stroke-miterlimit:10;}
	.st6{display:none;}
	.st7{display:inline;}
	.st8{enable-background:new    ;}
	.st9{fill:#0C4EA0;}
	.st10{display:none;fill:#0C4EA0;enable-background:new    ;}
	.st11{font-family:'DINNextLTW23-Bold';}
	.st12{font-size:37.6545px;}
	.st13{display:none;enable-background:new    ;}
	.st14{display:inline;fill:#0C4EA0;}
	.st15{display:inline;enable-background:new    ;}
	.st16{fill:#134A8C;}
	.st17{fill:#57AE46;}
</style>
<title>NEW LOGO gba</title>
<path class="st0" d="M277.5,265h-18c-8,0-12-0.1-15.9-0.3c-3.9-0.1-7.6-0.3-15.1-0.3c-6.1,0-11-4.9-11-11c0-6.1,4.9-11,11-11
	c8,0,12,0.1,15.9,0.3s7.6,0.3,15.1,0.3h8.8c31.9,0.2,68,0.5,86.5-24.2c7.9-10.4,10.5-23.9,7-36.5c-2.8-10.6-10.6-19.1-20.7-23.1
	c-5.8-2.2-12-3.3-18.2-3.2c-9,0-13.2,0.1-17.5,0.3s-8.8,0.3-18.2,0.3c-6.1,0-11-4.9-11-11s4.9-11,11-11c9,0,13.2-0.1,17.5-0.3
	s8.8-0.3,18.2-0.3c9-0.1,17.9,1.5,26.4,4.8c16.6,6.4,29.1,20.4,33.8,37.5c5.3,19.2,1.4,39.8-10.6,55.7
	C349.4,262.6,310.9,265,277.5,265z"/>
<path class="st0" d="M300.4,156.3c-6.1,0-11-4.9-11-11s4.9-11,11-11c23.6,0,42-9.5,50.5-26.1c4-7.9,5.2-17.8,3.6-29.4
	C348.7,38,303.2,36,248.8,37.5c-6.6,0.2-12.9,0.4-18.6,0.4c-6.1,0-11-4.9-11-11s4.9-11,11-11h0.4c5.3,0,11.3-0.2,17.6-0.4
	c23-0.6,51.5-1.5,75.7,5.1c30.7,8.3,48.4,26.9,52.4,55.1c2.3,16.2,0.3,30.5-5.8,42.5C358.3,142.1,332.1,156.3,300.4,156.3z"/>
<path class="st0" d="M228.4,124h-0.3c-6.1-0.1-10.9-5.2-10.7-11.3l0,0l2-82.6c0.1-6.1,5.2-10.9,11.3-10.7
	c6.1,0.1,10.9,5.2,10.7,11.3l-2,82.6C239.2,119.2,234.4,124,228.4,124z"/>
<path class="st1" d="M234.2,163.4h-88.4c-6.1,0-11-4.9-11-11s4.9-11,11-11h88.4c6.1,0,11,4.9,11,11S240.3,163.4,234.2,163.4
	L234.2,163.4z"/>
<path class="st2" d="M236.7,154.6c-7.9,62.1-64.5,106-126.6,98.1C48,244.8,4.1,188.1,12,126.1c7.2-56.6,55.3-99,112.4-99"/>
<path class="st3" d="M193.3,226.9"/>
<path class="st1" d="M124.3,264.8C55.7,264.9,0.1,209.3,0,140.7S55.5,16.4,124.1,16.4c20.2,0,40.1,4.9,58,14.3
	c5.5,2.6,7.8,9.2,5.2,14.7s-9.2,7.8-14.7,5.2c-0.2-0.1-0.4-0.2-0.7-0.3l-0.2-0.1C121.9,23.8,60,43,33.7,93s-7.1,111.8,42.9,138.1
	c35.4,18.6,78.5,14.9,110.2-9.6c4.8-3.7,11.7-2.9,15.4,1.9c3.7,4.8,2.9,11.7-1.9,15.4l0,0C178.6,255.7,151.8,264.8,124.3,264.8z"/>
<path class="st4" d="M541.4,265.3c-4.4,0-8.3-2.6-10.1-6.6L443.1,56.5l-35,86.6c-2.3,5.6-8.7,8.4-14.3,6.1
	c-5.6-2.3-8.4-8.7-6.1-14.3l0,0L432.5,24c2.3-5.6,8.8-8.3,14.4-6c2.6,1.1,4.7,3.1,5.8,5.7l98.7,226.1c2.4,5.6-0.1,12.1-5.7,14.5
	C544.4,265,542.9,265.3,541.4,265.3L541.4,265.3z"/>
<path class="st4" d="M505.8,183.7H404.1c-6.1,0-11-4.9-11-11s4.9-11,11-11h101.7c6.1,0,11,4.9,11,11S511.8,183.7,505.8,183.7
	L505.8,183.7z"/>
<line class="st5" x1="580.1" y1="198.8" x2="1437" y2="198.8"/>
<g class="st6">
	<g class="st7">
		<g class="st8">
			<path class="st9" d="M578.1,224c0-0.2,0.1-0.4,0.4-0.4h5.4c0.3,0,0.5,0.1,0.6,0.4l5.7,13h0.1l5.6-13c0.1-0.2,0.3-0.4,0.6-0.4h5.3
				c0.2,0,0.4,0.1,0.4,0.4v24.1c0,0.2-0.1,0.4-0.4,0.4h-5.1c-0.2,0-0.4-0.1-0.4-0.4v-12.8h-0.2l-4,9.3c-0.1,0.2-0.2,0.3-0.3,0.4
				c-0.1,0.1-0.2,0.1-0.4,0.1h-2.8c-0.3,0-0.5-0.2-0.7-0.5l-4-9.3H584v12.8c0,0.2-0.1,0.4-0.4,0.4h-5.1c-0.2,0-0.4-0.1-0.4-0.4V224z
				"/>
			<path class="st9" d="M616.9,224c0.1-0.2,0.2-0.4,0.5-0.4h5.9c0.2,0,0.4,0.1,0.5,0.4l8.4,24.1c0.1,0.2,0,0.4-0.3,0.4h-6
				c-0.2,0-0.4-0.1-0.5-0.4l-1.2-3.8h-8.1l-1.2,3.8c-0.1,0.2-0.2,0.4-0.5,0.4h-6c-0.2,0-0.3-0.1-0.3-0.4L616.9,224z M622.7,238.9
				l-2.3-7.7h-0.1l-2.4,7.7H622.7z"/>
			<path class="st9" d="M643.7,248.4h-0.1c0,0-0.1,0-0.2-0.1c0,0-0.1-0.1-0.1-0.1v-0.1v-18.5c0-0.1-0.1-0.2-0.2-0.2h0H637h-0.1
				c0,0-0.1,0-0.1-0.1l0,0l0,0c0,0,0-0.1,0-0.2v-5c0-0.2,0.1-0.3,0.3-0.4h0.1h19.1c0.1,0,0.2,0,0.3,0.1l0,0.1c0,0,0.1,0.1,0.1,0.2v5
				c0,0.1,0,0.2-0.1,0.3c0,0-0.1,0.1-0.2,0.1h-0.1H650c-0.1,0-0.1,0-0.1,0l-0.1,0.1v0.1v18.5v0.1c0,0.1-0.1,0.1-0.2,0.2
				c0,0-0.1,0-0.2,0H643.7z"/>
			<path class="st9" d="M662.5,224c0-0.2,0.1-0.4,0.4-0.4h16.2c0.2,0,0.4,0.1,0.4,0.4v4.7c0,0.2-0.1,0.4-0.4,0.4h-10
				c-0.1,0-0.2,0.1-0.2,0.2v3.8c0,0.1,0.1,0.2,0.2,0.2h8.2c0.2,0,0.4,0.1,0.4,0.4v4.6c0,0.2-0.1,0.4-0.4,0.4h-8.2
				c-0.1,0-0.2,0.1-0.2,0.2v4c0,0.1,0.1,0.2,0.2,0.2h10c0.2,0,0.4,0.1,0.4,0.4v4.7c0,0.2-0.1,0.4-0.4,0.4h-16.2
				c-0.2,0-0.4-0.1-0.4-0.4V224z"/>
			<path class="st9" d="M699.8,248.4c-0.3,0-0.5-0.1-0.5-0.4l-3.8-8.5h-2.4c-0.1,0-0.2,0.1-0.2,0.2v8.2c0,0.2-0.1,0.4-0.4,0.4h-5.7
				c-0.2,0-0.4-0.1-0.4-0.4V224c0-0.2,0.1-0.4,0.4-0.4H697c1.4,0,2.7,0.2,3.8,0.6c1.1,0.4,2.1,0.9,2.8,1.7c0.8,0.7,1.3,1.6,1.7,2.5
				c0.4,1,0.6,2,0.6,3.2c0,1.6-0.4,2.9-1.1,4.1c-0.7,1.2-1.7,2.1-3,2.8l4.6,9.5c0,0.1,0,0.2,0,0.3c0,0.1-0.1,0.1-0.3,0.1H699.8z
				 M696.6,234.3c0.9,0,1.6-0.2,2.2-0.7c0.5-0.5,0.8-1.1,0.8-1.9c0-0.8-0.3-1.4-0.8-1.9c-0.5-0.5-1.2-0.7-2.2-0.7h-3.4
				c-0.1,0-0.2,0.1-0.2,0.2v4.8c0,0.1,0.1,0.2,0.2,0.2H696.6z"/>
			<path class="st9" d="M713.1,224c0-0.2,0.1-0.4,0.4-0.4h5.4c0.3,0,0.5,0.1,0.6,0.4L727,238h0.1V224c0-0.2,0.1-0.4,0.4-0.4h5.1
				c0.2,0,0.4,0.1,0.4,0.4v24.1c0,0.2-0.1,0.4-0.4,0.4h-5.4c-0.3,0-0.5-0.1-0.6-0.4l-7.4-14H719v14c0,0.2-0.1,0.4-0.4,0.4h-5.1
				c-0.2,0-0.4-0.1-0.4-0.4V224z"/>
			<path class="st9" d="M740.6,224c0-0.2,0.1-0.4,0.4-0.4h16.2c0.2,0,0.4,0.1,0.4,0.4v4.7c0,0.2-0.1,0.4-0.4,0.4h-10
				c-0.1,0-0.2,0.1-0.2,0.2v3.8c0,0.1,0.1,0.2,0.2,0.2h8.2c0.2,0,0.4,0.1,0.4,0.4v4.6c0,0.2-0.1,0.4-0.4,0.4h-8.2
				c-0.1,0-0.2,0.1-0.2,0.2v4c0,0.1,0.1,0.2,0.2,0.2h10c0.2,0,0.4,0.1,0.4,0.4v4.7c0,0.2-0.1,0.4-0.4,0.4H741
				c-0.2,0-0.4-0.1-0.4-0.4V224z"/>
			<path class="st9" d="M764.6,224c0-0.2,0.1-0.4,0.4-0.4h5.7c0.2,0,0.4,0.1,0.4,0.4v18.5c0,0.1,0.1,0.2,0.2,0.2h10.5
				c0.2,0,0.4,0.1,0.4,0.4v5c0,0.2-0.1,0.4-0.4,0.4H765c-0.2,0-0.4-0.1-0.4-0.4V224z"/>
			<path class="st9" d="M788.5,224c0-0.2,0.1-0.4,0.4-0.4h5.7c0.2,0,0.4,0.1,0.4,0.4v18.5c0,0.1,0.1,0.2,0.2,0.2h10.5
				c0.2,0,0.4,0.1,0.4,0.4v5c0,0.2-0.1,0.4-0.4,0.4h-16.8c-0.2,0-0.4-0.1-0.4-0.4V224z"/>
			<path class="st9" d="M812.3,224c0-0.2,0.1-0.4,0.4-0.4h16.2c0.2,0,0.4,0.1,0.4,0.4v4.7c0,0.2-0.1,0.4-0.4,0.4h-10
				c-0.1,0-0.2,0.1-0.2,0.2v3.8c0,0.1,0.1,0.2,0.2,0.2h8.2c0.2,0,0.4,0.1,0.4,0.4v4.6c0,0.2-0.1,0.4-0.4,0.4H819
				c-0.1,0-0.2,0.1-0.2,0.2v4c0,0.1,0.1,0.2,0.2,0.2h10c0.2,0,0.4,0.1,0.4,0.4v4.7c0,0.2-0.1,0.4-0.4,0.4h-16.2
				c-0.2,0-0.4-0.1-0.4-0.4V224z"/>
			<path class="st9" d="M848.1,241v-4.6c0-0.2,0.1-0.4,0.4-0.4h11c0.2,0,0.4,0.1,0.4,0.4v4.6c0,0.2-0.1,0.4-0.4,0.4h-11
				C848.2,241.4,848.1,241.3,848.1,241z"/>
			<path class="st9" d="M879.6,248.4c-0.2,0-0.4-0.1-0.4-0.4V224c0-0.2,0.1-0.4,0.4-0.4h9.9c1.5,0,2.8,0.2,4,0.6
				c1.2,0.4,2.1,1,2.9,1.7c0.8,0.7,1.3,1.6,1.7,2.6c0.4,1,0.6,2.1,0.6,3.3c0,1.2-0.2,2.3-0.6,3.3c-0.4,1-1,1.9-1.8,2.6
				c-0.8,0.7-1.7,1.3-2.9,1.7c-1.1,0.4-2.5,0.6-4,0.6h-3.7c-0.1,0-0.2,0.1-0.2,0.2v7.7c0,0.2-0.1,0.4-0.4,0.4H879.6z M889.1,234.7
				c1,0,1.8-0.3,2.3-0.8c0.5-0.5,0.8-1.2,0.8-2.1c0-0.9-0.3-1.5-0.8-2c-0.5-0.5-1.3-0.8-2.3-0.8h-3.3c-0.1,0-0.2,0.1-0.2,0.2v5.2
				c0,0.1,0.1,0.2,0.2,0.2H889.1z"/>
			<path class="st9" d="M918.5,248.4c-0.3,0-0.5-0.1-0.5-0.4l-3.8-8.5h-2.4c-0.1,0-0.2,0.1-0.2,0.2v8.2c0,0.2-0.1,0.4-0.4,0.4h-5.7
				c-0.2,0-0.4-0.1-0.4-0.4V224c0-0.2,0.1-0.4,0.4-0.4h10.1c1.4,0,2.7,0.2,3.8,0.6c1.1,0.4,2.1,0.9,2.8,1.7c0.8,0.7,1.3,1.6,1.7,2.5
				c0.4,1,0.6,2,0.6,3.2c0,1.6-0.4,2.9-1.1,4.1c-0.7,1.2-1.7,2.1-3,2.8l4.6,9.5c0,0.1,0,0.2,0,0.3c0,0.1-0.1,0.1-0.3,0.1H918.5z
				 M915.3,234.3c0.9,0,1.6-0.2,2.2-0.7c0.5-0.5,0.8-1.1,0.8-1.9c0-0.8-0.3-1.4-0.8-1.9c-0.5-0.5-1.2-0.7-2.2-0.7h-3.4
				c-0.1,0-0.2,0.1-0.2,0.2v4.8c0,0.1,0.1,0.2,0.2,0.2H915.3z"/>
			<path class="st9" d="M931.8,224c0-0.2,0.1-0.4,0.4-0.4h5.7c0.2,0,0.4,0.1,0.4,0.4v24.1c0,0.2-0.1,0.4-0.4,0.4h-5.7
				c-0.2,0-0.4-0.1-0.4-0.4V224z"/>
			<path class="st9" d="M945.9,224c0-0.2,0.1-0.4,0.4-0.4h5.4c0.3,0,0.5,0.1,0.6,0.4l5.7,13h0.1l5.6-13c0.1-0.2,0.3-0.4,0.6-0.4h5.3
				c0.2,0,0.4,0.1,0.4,0.4v24.1c0,0.2-0.1,0.4-0.4,0.4h-5.1c-0.2,0-0.4-0.1-0.4-0.4v-12.8h-0.2l-4,9.3c-0.1,0.2-0.2,0.3-0.3,0.4
				c-0.1,0.1-0.2,0.1-0.4,0.1h-2.8c-0.3,0-0.5-0.2-0.7-0.5l-4-9.3h-0.2v12.8c0,0.2-0.1,0.4-0.4,0.4h-5.1c-0.2,0-0.4-0.1-0.4-0.4V224
				z"/>
			<path class="st9" d="M984.6,224c0.1-0.2,0.2-0.4,0.5-0.4h5.9c0.2,0,0.4,0.1,0.5,0.4l8.4,24.1c0.1,0.2,0,0.4-0.3,0.4h-6
				c-0.2,0-0.4-0.1-0.5-0.4l-1.2-3.8H984l-1.2,3.8c-0.1,0.2-0.2,0.4-0.5,0.4h-6c-0.2,0-0.3-0.1-0.3-0.4L984.6,224z M990.4,238.9
				l-2.3-7.7H988l-2.4,7.7H990.4z"/>
			<path class="st9" d="M1006,224c0-0.2,0.1-0.4,0.4-0.4h5.7c0.2,0,0.4,0.1,0.4,0.4v24.1c0,0.2-0.1,0.4-0.4,0.4h-5.7
				c-0.2,0-0.4-0.1-0.4-0.4V224z"/>
			<path class="st9" d="M1033.4,248.4c-0.3,0-0.5-0.1-0.5-0.4l-3.8-8.5h-2.4c-0.1,0-0.2,0.1-0.2,0.2v8.2c0,0.2-0.1,0.4-0.4,0.4h-5.7
				c-0.2,0-0.4-0.1-0.4-0.4V224c0-0.2,0.1-0.4,0.4-0.4h10.1c1.4,0,2.7,0.2,3.8,0.6c1.1,0.4,2.1,0.9,2.8,1.7c0.8,0.7,1.3,1.6,1.7,2.5
				c0.4,1,0.6,2,0.6,3.2c0,1.6-0.4,2.9-1.1,4.1c-0.7,1.2-1.7,2.1-3,2.8l4.6,9.5c0,0.1,0,0.2,0,0.3c0,0.1-0.1,0.1-0.3,0.1H1033.4z
				 M1030.1,234.3c0.9,0,1.6-0.2,2.2-0.7c0.5-0.5,0.8-1.1,0.8-1.9c0-0.8-0.3-1.4-0.8-1.9c-0.5-0.5-1.2-0.7-2.2-0.7h-3.4
				c-0.1,0-0.2,0.1-0.2,0.2v4.8c0,0.1,0.1,0.2,0.2,0.2H1030.1z"/>
			<path class="st9" d="M1046.7,224c0-0.2,0.1-0.4,0.4-0.4h16.2c0.2,0,0.4,0.1,0.4,0.4v4.7c0,0.2-0.1,0.4-0.4,0.4h-10
				c-0.1,0-0.2,0.1-0.2,0.2v3.8c0,0.1,0.1,0.2,0.2,0.2h8.2c0.2,0,0.4,0.1,0.4,0.4v4.6c0,0.2-0.1,0.4-0.4,0.4h-8.2
				c-0.1,0-0.2,0.1-0.2,0.2v4c0,0.1,0.1,0.2,0.2,0.2h10c0.2,0,0.4,0.1,0.4,0.4v4.7c0,0.2-0.1,0.4-0.4,0.4H1047
				c-0.2,0-0.4-0.1-0.4-0.4V224z"/>
			<path class="st9" d="M1082.4,241v-4.6c0-0.2,0.1-0.4,0.4-0.4h11c0.2,0,0.4,0.1,0.4,0.4v4.6c0,0.2-0.1,0.4-0.4,0.4h-11
				C1082.5,241.4,1082.4,241.3,1082.4,241z"/>
			<path class="st9" d="M1113.7,242.8c-0.1-0.4-0.3-0.8-0.3-1.2s-0.2-0.9-0.2-1.4c-0.1-0.5-0.1-1.1-0.1-1.7c0-0.7,0-1.4,0-2.4
				s0-1.7,0-2.4c0-0.7,0.1-1.2,0.1-1.7c0.1-0.5,0.1-1,0.2-1.4s0.2-0.8,0.3-1.2c0.7-2,1.8-3.6,3.3-4.6c1.5-1,3.4-1.5,5.7-1.5
				c2.2,0,4.1,0.5,5.6,1.5c1.5,1,2.6,2.4,3.3,4.2c0.1,0.2,0,0.4-0.2,0.5l-4.9,2.1c-0.2,0.1-0.4,0-0.5-0.2c-0.3-0.7-0.8-1.3-1.2-1.7
				c-0.5-0.4-1.2-0.6-2-0.6c-1.5,0-2.5,0.7-3,2.2c-0.1,0.2-0.1,0.4-0.2,0.6c0,0.2-0.1,0.5-0.1,0.9s-0.1,0.8-0.1,1.4
				c0,0.6,0,1.3,0,2.1c0,0.9,0,1.6,0,2.1s0,1,0.1,1.4s0.1,0.6,0.1,0.9c0,0.2,0.1,0.4,0.2,0.6c0.5,1.4,1.5,2.2,3,2.2
				c0.9,0,1.5-0.2,2-0.6c0.5-0.4,0.9-1,1.2-1.7c0.1-0.2,0.3-0.3,0.5-0.2l4.9,2.1c0.2,0.1,0.3,0.3,0.2,0.5c-0.7,1.8-1.8,3.2-3.3,4.2
				c-1.5,1-3.4,1.5-5.6,1.5c-2.3,0-4.2-0.5-5.7-1.5C1115.4,246.3,1114.3,244.8,1113.7,242.8z"/>
			<path class="st9" d="M1147.6,248.9c-2.2,0-4.1-0.5-5.8-1.5c-1.7-1-2.8-2.5-3.5-4.6c-0.1-0.5-0.3-0.9-0.4-1.4
				c-0.1-0.5-0.2-0.9-0.2-1.4s-0.1-1.1-0.1-1.7s0-1.4,0-2.2c0-0.9,0-1.6,0-2.2c0-0.6,0.1-1.2,0.1-1.7c0-0.5,0.1-1,0.2-1.4
				c0.1-0.4,0.2-0.9,0.4-1.4c0.7-2,1.8-3.5,3.5-4.6c1.7-1,3.6-1.5,5.8-1.5c2.2,0,4.1,0.5,5.8,1.5c1.7,1,2.8,2.5,3.5,4.6
				c0.1,0.5,0.3,0.9,0.4,1.4c0.1,0.4,0.2,0.9,0.2,1.4c0.1,0.5,0.1,1.1,0.1,1.7c0,0.6,0,1.4,0,2.2c0,0.9,0,1.6,0,2.2
				c0,0.6,0,1.2-0.1,1.7c-0.1,0.5-0.1,1-0.2,1.4c-0.1,0.5-0.2,0.9-0.4,1.4c-0.7,2-1.8,3.5-3.5,4.6
				C1151.7,248.4,1149.8,248.9,1147.6,248.9z M1147.6,243.2c0.8,0,1.5-0.2,2-0.6c0.5-0.4,0.9-0.9,1.2-1.6c0.1-0.2,0.1-0.5,0.2-0.7
				c0-0.3,0.1-0.6,0.1-0.9c0-0.4,0-0.8,0.1-1.4c0-0.5,0-1.2,0-1.9c0-0.7,0-1.4,0-1.9c0-0.5,0-1-0.1-1.4c0-0.4-0.1-0.7-0.1-0.9
				c0-0.3-0.1-0.5-0.2-0.7c-0.2-0.7-0.6-1.2-1.2-1.6c-0.5-0.4-1.2-0.6-2-0.6s-1.5,0.2-2,0.6c-0.5,0.4-0.9,0.9-1.2,1.6
				c-0.1,0.2-0.1,0.5-0.2,0.7c0,0.3-0.1,0.6-0.1,0.9c0,0.4,0,0.8-0.1,1.4s0,1.2,0,1.9c0,0.7,0,1.4,0,1.9s0,1,0.1,1.4
				c0,0.4,0.1,0.7,0.1,0.9s0.1,0.5,0.2,0.7c0.2,0.7,0.6,1.2,1.2,1.6C1146.1,243,1146.8,243.2,1147.6,243.2z"/>
			<path class="st9" d="M1164.7,224c0-0.2,0.1-0.4,0.4-0.4h5.7c0.2,0,0.4,0.1,0.4,0.4v18.5c0,0.1,0.1,0.2,0.2,0.2h10.5
				c0.2,0,0.4,0.1,0.4,0.4v5c0,0.2-0.1,0.4-0.4,0.4h-16.8c-0.2,0-0.4-0.1-0.4-0.4V224z"/>
			<path class="st9" d="M1188.6,224c0-0.2,0.1-0.4,0.4-0.4h5.7c0.2,0,0.4,0.1,0.4,0.4v18.5c0,0.1,0.1,0.2,0.2,0.2h10.5
				c0.2,0,0.4,0.1,0.4,0.4v5c0,0.2-0.1,0.4-0.4,0.4h-16.8c-0.2,0-0.4-0.1-0.4-0.4V224z"/>
			<path class="st9" d="M1212.4,224c0-0.2,0.1-0.4,0.4-0.4h16.2c0.2,0,0.4,0.1,0.4,0.4v4.7c0,0.2-0.1,0.4-0.4,0.4h-10
				c-0.1,0-0.2,0.1-0.2,0.2v3.8c0,0.1,0.1,0.2,0.2,0.2h8.2c0.2,0,0.4,0.1,0.4,0.4v4.6c0,0.2-0.1,0.4-0.4,0.4h-8.2
				c-0.1,0-0.2,0.1-0.2,0.2v4c0,0.1,0.1,0.2,0.2,0.2h10c0.2,0,0.4,0.1,0.4,0.4v4.7c0,0.2-0.1,0.4-0.4,0.4h-16.2
				c-0.2,0-0.4-0.1-0.4-0.4V224z M1219.6,221.2c-0.3,0-0.5-0.1-0.7-0.3l-4.7-4.5c-0.1-0.1-0.1-0.2-0.1-0.3s0.1-0.1,0.2-0.1h5.2
				c0.2,0,0.5,0.1,0.7,0.4l3.7,4.5c0.1,0.1,0.1,0.2,0.1,0.3s-0.1,0.1-0.2,0.1H1219.6z"/>
			<path class="st9" d="M1236.6,242.8c-0.1-0.5-0.3-0.9-0.4-1.4c-0.1-0.5-0.2-0.9-0.2-1.4s-0.1-1.1-0.1-1.7s0-1.4,0-2.2
				c0-0.9,0-1.6,0-2.2c0-0.6,0.1-1.2,0.1-1.7c0-0.5,0.1-1,0.2-1.4c0.1-0.4,0.2-0.9,0.4-1.4c0.7-2,1.8-3.5,3.5-4.6
				c1.7-1,3.6-1.5,5.8-1.5c2.3,0,4.2,0.5,5.7,1.4c1.5,1,2.6,2.2,3.3,3.9c0.1,0.3,0.1,0.5-0.2,0.6l-4.7,2c-0.2,0.1-0.4,0.1-0.5-0.1
				c-0.4-0.7-0.9-1.2-1.4-1.5c-0.5-0.3-1.2-0.5-2.1-0.5s-1.5,0.2-2.1,0.6c-0.5,0.4-0.9,0.9-1.1,1.6c-0.1,0.2-0.1,0.5-0.2,0.7
				s-0.1,0.6-0.1,1c0,0.4,0,0.8-0.1,1.4c0,0.5,0,1.2,0,1.9c0,0.7,0,1.4,0,1.9s0,1,0.1,1.4c0,0.4,0.1,0.7,0.1,0.9
				c0,0.3,0.1,0.5,0.2,0.7c0.2,0.7,0.6,1.2,1.2,1.6c0.6,0.4,1.3,0.6,2.2,0.6c0.8,0,1.5-0.2,2.1-0.5c0.6-0.3,1-0.8,1.2-1.5
				c0.1-0.4,0.2-1,0.2-1.6c0-0.1-0.1-0.2-0.2-0.2h-2.7c-0.2,0-0.4-0.1-0.4-0.4v-4.1c0-0.2,0.1-0.4,0.4-0.4h8.9
				c0.2,0,0.4,0.1,0.4,0.4v1.9c0,1.2,0,2.3-0.1,3.2c-0.1,0.9-0.3,1.8-0.5,2.6c-0.7,2.1-1.8,3.6-3.4,4.7c-1.6,1.1-3.6,1.6-5.9,1.6
				c-2.2,0-4.2-0.5-5.8-1.5C1238.4,246.3,1237.2,244.8,1236.6,242.8z"/>
			<path class="st9" d="M1263,224c0-0.2,0.1-0.4,0.4-0.4h16.2c0.2,0,0.4,0.1,0.4,0.4v4.7c0,0.2-0.1,0.4-0.4,0.4h-10
				c-0.1,0-0.2,0.1-0.2,0.2v3.8c0,0.1,0.1,0.2,0.2,0.2h8.2c0.2,0,0.4,0.1,0.4,0.4v4.6c0,0.2-0.1,0.4-0.4,0.4h-8.2
				c-0.1,0-0.2,0.1-0.2,0.2v4c0,0.1,0.1,0.2,0.2,0.2h10c0.2,0,0.4,0.1,0.4,0.4v4.7c0,0.2-0.1,0.4-0.4,0.4h-16.2
				c-0.2,0-0.4-0.1-0.4-0.4V224z"/>
			<path class="st9" d="M1298.7,241v-4.6c0-0.2,0.1-0.4,0.4-0.4h11c0.2,0,0.4,0.1,0.4,0.4v4.6c0,0.2-0.1,0.4-0.4,0.4h-11
				C1298.8,241.4,1298.7,241.3,1298.7,241z"/>
			<path class="st9" d="M1329.9,224c0-0.2,0.1-0.4,0.4-0.4h5.7c0.2,0,0.4,0.1,0.4,0.4v18.5c0,0.1,0.1,0.2,0.2,0.2h10.5
				c0.2,0,0.4,0.1,0.4,0.4v5c0,0.2-0.1,0.4-0.4,0.4h-16.8c-0.2,0-0.4-0.1-0.4-0.4V224z"/>
			<path class="st9" d="M1359.9,248.4c-0.2,0-0.4-0.1-0.4-0.4v-9.2L1352,224c-0.1-0.3,0-0.4,0.3-0.4h5.7c0.2,0,0.4,0.1,0.6,0.4
				l4.2,8.5h0.1l4.1-8.5c0.1-0.2,0.3-0.4,0.6-0.4h5.6c0.3,0,0.4,0.1,0.3,0.4l-7.5,14.8v9.2c0,0.2-0.1,0.4-0.4,0.4H1359.9z"/>
			<path class="st9" d="M1379.5,242.8c-0.1-0.4-0.3-0.8-0.3-1.2s-0.2-0.9-0.2-1.4c-0.1-0.5-0.1-1.1-0.1-1.7c0-0.7,0-1.4,0-2.4
				s0-1.7,0-2.4c0-0.7,0.1-1.2,0.1-1.7c0.1-0.5,0.1-1,0.2-1.4s0.2-0.8,0.3-1.2c0.7-2,1.8-3.6,3.3-4.6c1.5-1,3.4-1.5,5.7-1.5
				c2.2,0,4.1,0.5,5.6,1.5c1.5,1,2.6,2.4,3.3,4.2c0.1,0.2,0,0.4-0.2,0.5l-4.9,2.1c-0.2,0.1-0.4,0-0.5-0.2c-0.3-0.7-0.8-1.3-1.2-1.7
				c-0.5-0.4-1.2-0.6-2-0.6c-1.5,0-2.5,0.7-3,2.2c-0.1,0.2-0.1,0.4-0.2,0.6c0,0.2-0.1,0.5-0.1,0.9s-0.1,0.8-0.1,1.4
				c0,0.6,0,1.3,0,2.1c0,0.9,0,1.6,0,2.1s0,1,0.1,1.4s0.1,0.6,0.1,0.9c0,0.2,0.1,0.4,0.2,0.6c0.5,1.4,1.5,2.2,3,2.2
				c0.9,0,1.5-0.2,2-0.6c0.5-0.4,0.9-1,1.2-1.7c0.1-0.2,0.3-0.3,0.5-0.2l4.9,2.1c0.2,0.1,0.3,0.3,0.2,0.5c-0.7,1.8-1.8,3.2-3.3,4.2
				c-1.5,1-3.4,1.5-5.6,1.5c-2.3,0-4.2-0.5-5.7-1.5C1381.3,246.3,1380.2,244.8,1379.5,242.8z"/>
			<path class="st9" d="M1403.9,224c0-0.2,0.1-0.4,0.4-0.4h16.2c0.2,0,0.4,0.1,0.4,0.4v4.7c0,0.2-0.1,0.4-0.4,0.4h-10
				c-0.1,0-0.2,0.1-0.2,0.2v3.8c0,0.1,0.1,0.2,0.2,0.2h8.2c0.2,0,0.4,0.1,0.4,0.4v4.6c0,0.2-0.1,0.4-0.4,0.4h-8.2
				c-0.1,0-0.2,0.1-0.2,0.2v4c0,0.1,0.1,0.2,0.2,0.2h10c0.2,0,0.4,0.1,0.4,0.4v4.7c0,0.2-0.1,0.4-0.4,0.4h-16.2
				c-0.2,0-0.4-0.1-0.4-0.4V224z M1409.1,221.2c-0.1,0-0.2,0-0.2-0.1s0-0.2,0.1-0.3l3.7-4.5c0.2-0.2,0.4-0.4,0.7-0.4h5.2
				c0.1,0,0.2,0,0.2,0.1c0,0.1,0,0.2-0.1,0.3l-4.7,4.5c-0.2,0.2-0.5,0.3-0.7,0.3H1409.1z"/>
			<path class="st9" d="M1427.9,224c0-0.2,0.1-0.4,0.4-0.4h16.2c0.2,0,0.4,0.1,0.4,0.4v4.7c0,0.2-0.1,0.4-0.4,0.4h-10
				c-0.1,0-0.2,0.1-0.2,0.2v3.8c0,0.1,0.1,0.2,0.2,0.2h8.2c0.2,0,0.4,0.1,0.4,0.4v4.6c0,0.2-0.1,0.4-0.4,0.4h-8.2
				c-0.1,0-0.2,0.1-0.2,0.2v4c0,0.1,0.1,0.2,0.2,0.2h10c0.2,0,0.4,0.1,0.4,0.4v4.7c0,0.2-0.1,0.4-0.4,0.4h-16.2
				c-0.2,0-0.4-0.1-0.4-0.4V224z"/>
		</g>
		<text transform="matrix(1 0 0 1 1325.0369 251.5818)" class="st10 st11 st12">L</text>
		<text transform="matrix(1 0 0 1 1344.6687 251.5818)" class="st10 st11 st12">Y</text>
		<g class="st13">
			<path class="st14" d="M1373,226.4c0-0.3,0.1-0.4,0.4-0.4h4.8c0.2,0,0.4,0.1,0.4,0.4v20.1c0,0.2,0.1,0.2,0.2,0.2h11.3
				c0.3,0,0.4,0.1,0.4,0.4v4.2c0,0.3-0.1,0.4-0.4,0.4h-16.7c-0.3,0-0.4-0.1-0.4-0.4V226.4z"/>
			<path class="st14" d="M1402.4,251.6c-0.3,0-0.4-0.1-0.4-0.4v-9.8l-7.6-15c-0.1-0.3,0-0.4,0.3-0.4h4.9c0.3,0,0.5,0.1,0.6,0.4
				l4.6,9.3h0.1l4.6-9.3c0.1-0.3,0.3-0.4,0.6-0.4h4.7c0.1,0,0.2,0,0.3,0.1c0.1,0.1,0.1,0.2,0,0.3l-7.6,15v9.8c0,0.3-0.1,0.4-0.4,0.4
				H1402.4z"/>
			<path class="st14" d="M1420.8,245.7c-0.2-0.4-0.3-0.8-0.4-1.2c-0.1-0.4-0.2-0.9-0.2-1.4c0-0.5-0.1-1.1-0.1-1.8c0-0.7,0-1.5,0-2.5
				c0-1,0-1.8,0-2.5c0-0.7,0.1-1.3,0.1-1.8c0.1-0.5,0.1-1,0.2-1.4c0.1-0.4,0.2-0.8,0.4-1.2c0.7-2.1,1.8-3.7,3.4-4.7
				c1.6-1,3.5-1.6,5.7-1.6c2.2,0,4,0.5,5.6,1.5c1.5,1,2.6,2.4,3.4,4.2c0.1,0.2,0.1,0.4-0.2,0.5l-4.1,1.8c-0.2,0.1-0.4,0.1-0.5-0.2
				c-0.4-0.8-0.8-1.5-1.5-2.1c-0.6-0.6-1.5-0.8-2.6-0.8c-1,0-1.8,0.3-2.5,0.8c-0.6,0.5-1.1,1.2-1.4,2.1c-0.1,0.2-0.1,0.5-0.2,0.7
				c-0.1,0.3-0.1,0.6-0.1,1c0,0.4-0.1,0.9-0.1,1.5c0,0.6,0,1.4,0,2.3c0,0.9,0,1.7,0,2.3c0,0.6,0,1.1,0.1,1.5c0,0.4,0.1,0.7,0.1,1
				c0,0.3,0.1,0.5,0.2,0.7c0.3,0.9,0.7,1.6,1.4,2.1c0.6,0.5,1.5,0.8,2.5,0.8c1.1,0,1.9-0.3,2.6-0.8c0.6-0.6,1.1-1.2,1.5-2.1
				c0.1-0.3,0.3-0.3,0.5-0.2l4.1,1.8c0.3,0.1,0.3,0.2,0.2,0.5c-0.7,1.8-1.9,3.2-3.4,4.2c-1.5,1-3.4,1.5-5.6,1.5
				c-2.3,0-4.2-0.5-5.7-1.6C1422.6,249.4,1421.5,247.8,1420.8,245.7z"/>
			<path class="st14" d="M1445.2,226.4c0-0.3,0.1-0.4,0.4-0.4h16.4c0.3,0,0.4,0.1,0.4,0.4v4c0,0.3-0.1,0.4-0.4,0.4h-11
				c-0.2,0-0.2,0.1-0.2,0.2v5.1c0,0.2,0.1,0.2,0.2,0.2h9.2c0.3,0,0.4,0.1,0.4,0.4v4c0,0.3-0.1,0.4-0.4,0.4h-9.2
				c-0.2,0-0.2,0.1-0.2,0.2v5.3c0,0.2,0.1,0.2,0.2,0.2h11c0.3,0,0.4,0.1,0.4,0.4v4c0,0.3-0.1,0.4-0.4,0.4h-16.4
				c-0.3,0-0.4-0.1-0.4-0.4V226.4z M1450.8,223.2c-0.1,0-0.2,0-0.2-0.1c0-0.1,0-0.2,0.1-0.3l3.6-4.3c0.2-0.2,0.4-0.4,0.7-0.4h4.5
				c0.1,0,0.2,0,0.3,0.1c0,0.1,0,0.2-0.1,0.3l-4.6,4.4c-0.2,0.2-0.5,0.3-0.7,0.3H1450.8z"/>
			<path class="st14" d="M1469.3,226.4c0-0.3,0.1-0.4,0.4-0.4h16.4c0.3,0,0.4,0.1,0.4,0.4v4c0,0.3-0.1,0.4-0.4,0.4h-11
				c-0.2,0-0.2,0.1-0.2,0.2v5.1c0,0.2,0.1,0.2,0.2,0.2h9.2c0.3,0,0.4,0.1,0.4,0.4v4c0,0.3-0.1,0.4-0.4,0.4h-9.2
				c-0.2,0-0.2,0.1-0.2,0.2v5.3c0,0.2,0.1,0.2,0.2,0.2h11c0.3,0,0.4,0.1,0.4,0.4v4c0,0.3-0.1,0.4-0.4,0.4h-16.4
				c-0.3,0-0.4-0.1-0.4-0.4V226.4z"/>
		</g>
	</g>
	<g class="st15">
		<path class="st16" d="M581,75.9c-2.1,0-3.8-0.6-5-1.9c-1.2-1.3-1.8-3-1.8-5.3V26c0-2.3,0.6-4.1,1.8-5.3c1.2-1.3,2.9-1.9,5-1.9
			h19.6c6.5,0,11.4,1.3,14.8,3.8c3.4,2.5,5.1,6.1,5.1,10.9c0,3.2-0.9,5.8-2.6,7.7c-1.7,2-4.3,3.4-7.6,4.4c4.2,1,7.4,2.7,9.4,5.2
			c2,2.5,3,5.4,3,8.9c0,5.5-1.8,9.6-5.5,12.3c-3.7,2.7-9.5,4-17.6,4H581z M598,42.7c3,0,5.3-0.6,6.8-1.9c1.5-1.3,2.3-3.1,2.3-5.4
			c0-2.4-0.7-4.1-2.2-5.3c-1.4-1.1-3.8-1.7-6.9-1.7h-11v14.3H598z M598.7,66.2c3.9,0,6.6-0.6,8.2-1.8c1.6-1.2,2.4-3.2,2.4-6
			c0-2.5-0.8-4.4-2.5-5.6c-1.6-1.2-4.3-1.8-8-1.8H587v15.1H598.7z"/>
		<path class="st16" d="M643.8,61.3l-3.5,9.2c-0.8,2.2-1.9,3.8-3.2,4.7c-1.3,0.9-2.6,1.3-4,1.3c-0.9,0-1.8-0.1-2.7-0.4
			s-1.6-0.7-2.3-1.1c-0.6-0.4-1.1-0.9-1.5-1.3c-0.4-0.4-0.5-0.8-0.4-1.1l19.5-50.4c0.4-1.2,1.1-2.1,2.3-2.8c1.2-0.7,3.2-1.1,6.2-1.1
			c1.5,0,2.7,0.1,3.7,0.3c1,0.2,1.8,0.4,2.4,0.8c0.6,0.4,1.1,0.8,1.5,1.2c0.4,0.5,0.6,1,0.8,1.6l20,50.4c0.1,0.2,0,0.6-0.4,1.1
			c-0.4,0.5-0.9,0.9-1.5,1.4c-0.7,0.4-1.5,0.8-2.3,1.1c-0.9,0.3-1.8,0.5-2.8,0.5c-1.4,0-2.8-0.4-4.2-1.3c-1.4-0.9-2.5-2.5-3.4-4.9
			l-3.4-9H643.8z M661.9,51.6c-0.4-1.2-0.8-2.3-1.2-3.2c-0.4-1-0.8-2.1-1.3-3.4c-0.5-1.3-0.9-2.5-1.4-3.8l-3.9-10.4l-7.9,20.8H661.9
			z"/>
		<path class="st16" d="M695.3,75.9c-2.1,0-3.8-0.6-5-1.9c-1.2-1.3-1.8-3-1.8-5.3V26c0-2.3,0.6-4.1,1.8-5.3c1.2-1.3,2.9-1.9,5-1.9
			h19.6c6.5,0,11.4,1.3,14.8,3.8c3.4,2.5,5.1,6.1,5.1,10.9c0,3.2-0.9,5.8-2.6,7.7c-1.7,2-4.3,3.4-7.6,4.4c4.2,1,7.4,2.7,9.4,5.2
			c2,2.5,3,5.4,3,8.9c0,5.5-1.8,9.6-5.5,12.3c-3.7,2.7-9.5,4-17.6,4H695.3z M712.2,42.7c3,0,5.3-0.6,6.8-1.9
			c1.5-1.3,2.3-3.1,2.3-5.4c0-2.4-0.7-4.1-2.2-5.3c-1.4-1.1-3.8-1.7-6.9-1.7h-11v14.3H712.2z M712.9,66.2c3.9,0,6.6-0.6,8.2-1.8
			c1.6-1.2,2.4-3.2,2.4-6c0-2.5-0.8-4.4-2.5-5.6c-1.6-1.2-4.3-1.8-8-1.8h-11.8v15.1H712.9z"/>
		<path class="st16" d="M772.8,70.3c0,3.9-1.9,5.9-5.7,5.9h-1.8c-3.7,0-5.6-2-5.6-5.9V52.9l-20-29.5c-0.1-0.2,0-0.5,0.2-1.1
			c0.3-0.6,0.7-1.1,1.4-1.7c0.6-0.6,1.5-1.1,2.7-1.5c1.1-0.5,2.5-0.7,4.1-0.7c1.2,0,2.3,0.4,3.4,1.1c1.1,0.7,2,1.9,2.8,3.4l12,19.6
			L778.5,23c1-1.7,2-2.9,3.1-3.6c1.1-0.7,2.1-1,3.2-1c1.5,0,2.7,0.2,3.8,0.7c1,0.5,1.9,1,2.6,1.6c0.7,0.6,1.1,1.1,1.4,1.7
			s0.3,0.9,0.2,1.1l-19.9,29.5V70.3z"/>
		<path class="st16" d="M804.8,75.9c-2.1,0-3.8-0.6-5-1.9c-1.2-1.2-1.8-3-1.8-5.3V24.3c0-3.9,1.8-5.9,5.5-5.9h1.9
			c3.8,0,5.7,2,5.7,5.9v40.1h21.4c4,0,6,1.8,6,5.5v0.4c0,3.8-2,5.7-6,5.7H804.8z"/>
		<path class="st16" d="M873,77c-4.3,0-8.3-0.7-11.9-2.2c-3.6-1.4-6.7-3.5-9.3-6.1c-2.6-2.6-4.6-5.8-6.1-9.4
			c-1.4-3.7-2.2-7.7-2.2-12c0-4.4,0.7-8.4,2.2-12c1.5-3.7,3.5-6.8,6.1-9.4c2.6-2.6,5.7-4.7,9.3-6.1c3.6-1.5,7.5-2.2,11.8-2.2
			c4.4,0,8.3,0.7,11.9,2.2c3.6,1.5,6.7,3.5,9.3,6.1c2.6,2.6,4.6,5.7,6.1,9.4c1.4,3.6,2.2,7.6,2.2,12c0,4.4-0.7,8.4-2.2,12
			c-1.4,3.7-3.5,6.8-6.1,9.4c-2.6,2.6-5.7,4.7-9.3,6.1C881.3,76.3,877.4,77,873,77z M873.1,65.5c2.5,0,4.7-0.4,6.7-1.3
			c2-0.9,3.7-2.1,5.2-3.7c1.5-1.6,2.6-3.5,3.4-5.7c0.8-2.2,1.2-4.7,1.2-7.4c0-2.7-0.4-5.2-1.2-7.4c-0.8-2.2-2-4.2-3.4-5.8
			c-1.4-1.6-3.2-2.9-5.2-3.8s-4.3-1.3-6.8-1.3c-2.5,0-4.7,0.4-6.7,1.3c-2,0.9-3.7,2.1-5.2,3.7c-1.4,1.6-2.6,3.5-3.4,5.7
			c-0.8,2.2-1.2,4.7-1.2,7.5c0,2.7,0.4,5.2,1.2,7.4c0.8,2.2,1.9,4.2,3.4,5.7c1.5,1.6,3.2,2.8,5.2,3.7
			C868.4,65,870.6,65.5,873.1,65.5z"/>
		<path class="st16" d="M916.1,76.2c-3.6,0-5.4-2-5.4-5.9V24.8c0-2.1,0.5-3.7,1.5-4.8c1-1.1,2.4-1.7,4.2-1.7h1.6
			c1.7,0,3,0.3,3.8,0.9c0.9,0.6,1.8,1.5,2.8,2.8l24.7,34V24.3c0-3.9,1.9-5.9,5.6-5.9h1.2c3.7,0,5.5,2,5.5,5.9v45.5
			c0,2.1-0.5,3.7-1.5,4.8c-1,1.1-2.4,1.6-4.1,1.6H955c-0.9,0-1.6-0.1-2.2-0.2c-0.6-0.1-1.1-0.3-1.5-0.6c-0.4-0.3-0.9-0.6-1.2-1
			c-0.4-0.4-0.8-0.9-1.3-1.5L923,37.7v32.6c0,3.9-1.9,5.9-5.7,5.9H916.1z"/>
		<path class="st16" d="M978.7,75.9c-2.1,0-3.8-0.6-5-1.9c-1.2-1.2-1.8-3-1.8-5.3V26c0-2.3,0.6-4.1,1.8-5.3c1.2-1.3,2.9-1.9,5-1.9
			h31.9c2.1,0,3.6,0.5,4.5,1.5s1.5,2.3,1.5,4v0.4c0,3.7-2,5.5-6,5.5h-25.6v11.3h18.7c2.1,0,3.7,0.4,4.6,1.3c0.9,0.9,1.4,2.1,1.4,3.7
			v0.4c0,3.5-2,5.3-6,5.3h-18.7v12.5h26.1c4,0,6,1.7,6,5.1v0.5c0,3.8-2,5.7-6,5.7H978.7z"/>
		<path class="st16" d="M1053.1,61.3l-3.5,9.2c-0.8,2.2-1.9,3.8-3.2,4.7c-1.3,0.9-2.6,1.3-4,1.3c-0.9,0-1.8-0.1-2.7-0.4
			c-0.9-0.3-1.7-0.7-2.3-1.1c-0.6-0.4-1.1-0.9-1.5-1.3c-0.4-0.4-0.5-0.8-0.4-1.1l19.5-50.4c0.4-1.2,1.1-2.1,2.3-2.8
			c1.2-0.7,3.2-1.1,6.2-1.1c1.5,0,2.7,0.1,3.7,0.3c1,0.2,1.8,0.4,2.4,0.8c0.6,0.4,1.1,0.8,1.5,1.2c0.4,0.5,0.6,1,0.8,1.6l20,50.4
			c0.1,0.2,0,0.6-0.4,1.1c-0.4,0.5-0.9,0.9-1.5,1.4c-0.7,0.4-1.5,0.8-2.3,1.1c-0.9,0.3-1.8,0.5-2.8,0.5c-1.4,0-2.8-0.4-4.2-1.3
			c-1.4-0.9-2.5-2.5-3.4-4.9l-3.4-9H1053.1z M1071.3,51.6c-0.4-1.2-0.8-2.3-1.2-3.2c-0.4-1-0.8-2.1-1.3-3.4
			c-0.5-1.3-0.9-2.5-1.4-3.8l-3.9-10.4l-7.9,20.8H1071.3z"/>
		<path class="st16" d="M1125.3,77c-4.3,0-8.3-0.7-11.9-2.2c-3.6-1.4-6.7-3.5-9.3-6.1c-2.6-2.6-4.6-5.8-6-9.4
			c-1.4-3.7-2.2-7.7-2.2-12c0-4.4,0.7-8.4,2.2-12c1.4-3.7,3.5-6.8,6.1-9.4c2.6-2.6,5.7-4.7,9.3-6.1c3.6-1.5,7.6-2.2,12-2.2
			c3.8,0,7,0.5,9.8,1.4c2.8,0.9,5,2,6.8,3.4c1.8,1.3,3.1,2.7,4,4.2c0.9,1.5,1.3,2.8,1.3,4c0,1.4-0.4,2.6-1.1,3.5
			c-0.8,0.9-1.6,1.6-2.5,2.1c-0.9,0.5-1.8,0.8-2.6,1c-0.8,0.1-1.2,0.2-1.3,0c-1.4-2.5-3.4-4.4-5.9-5.7c-2.5-1.4-5.2-2-8.2-2
			c-2.4,0-4.5,0.4-6.6,1.3c-2,0.9-3.8,2.1-5.3,3.7c-1.5,1.6-2.6,3.5-3.4,5.7c-0.8,2.2-1.2,4.6-1.2,7.3s0.4,5.1,1.2,7.3
			c0.8,2.2,2,4.1,3.5,5.7s3.3,2.8,5.3,3.7s4.3,1.3,6.7,1.3c3.4,0,6.3-0.8,8.8-2.3c2.5-1.5,4.3-3.7,5.4-6.4c0.1-0.1,0.5-0.1,1.3,0
			c0.8,0.1,1.7,0.5,2.7,1c1,0.5,1.9,1.2,2.7,2.1c0.8,0.9,1.2,2.1,1.2,3.5c0,1.2-0.5,2.7-1.4,4.2c-0.9,1.6-2.3,3.1-4.2,4.5
			s-4.2,2.6-7.1,3.6C1132.7,76.5,1129.3,77,1125.3,77z"/>
		<path class="st16" d="M1168.9,61.3l-3.5,9.2c-0.8,2.2-1.9,3.8-3.2,4.7c-1.3,0.9-2.6,1.3-4,1.3c-0.9,0-1.8-0.1-2.7-0.4
			c-0.9-0.3-1.7-0.7-2.3-1.1c-0.6-0.4-1.1-0.9-1.5-1.3c-0.4-0.4-0.5-0.8-0.4-1.1l19.5-50.4c0.4-1.2,1.1-2.1,2.3-2.8
			c1.2-0.7,3.2-1.1,6.2-1.1c1.5,0,2.7,0.1,3.7,0.3c1,0.2,1.8,0.4,2.4,0.8c0.6,0.4,1.1,0.8,1.5,1.2c0.4,0.5,0.6,1,0.8,1.6l20,50.4
			c0.1,0.2,0,0.6-0.4,1.1c-0.4,0.5-0.9,0.9-1.5,1.4c-0.7,0.4-1.5,0.8-2.3,1.1c-0.9,0.3-1.8,0.5-2.8,0.5c-1.4,0-2.8-0.4-4.2-1.3
			c-1.4-0.9-2.5-2.5-3.4-4.9l-3.4-9H1168.9z M1187,51.6c-0.4-1.2-0.8-2.3-1.2-3.2c-0.4-1-0.8-2.1-1.3-3.4c-0.5-1.3-0.9-2.5-1.4-3.8
			l-3.9-10.4l-7.9,20.8H1187z"/>
		<path class="st16" d="M1220.8,75.9c-2.1,0-3.8-0.7-5.2-2.1c-1.4-1.4-2.1-3.1-2.1-5.1V26c0-2.3,0.6-4.1,1.9-5.3
			c1.3-1.3,2.9-1.9,4.9-1.9h14.4c4.8,0,9.1,0.6,12.9,1.9c3.8,1.3,7,3.2,9.7,5.6c2.7,2.4,4.7,5.4,6.1,8.9c1.4,3.5,2.1,7.5,2.1,11.9
			s-0.7,8.4-2.2,12c-1.4,3.6-3.5,6.6-6.2,9.1c-2.7,2.5-5.9,4.4-9.8,5.7c-3.9,1.3-8.2,2-13,2H1220.8z M1234.4,64.7
			c5.7,0,10.2-1.5,13.4-4.6c3.2-3.1,4.9-7.4,4.9-13c0-5.5-1.6-9.8-4.8-12.8c-3.2-3-7.6-4.5-13.3-4.5h-8.1v34.9H1234.4z"/>
		<path class="st16" d="M1280.7,75.9c-2.1,0-3.8-0.6-5-1.9c-1.2-1.2-1.8-3-1.8-5.3V26c0-2.3,0.6-4.1,1.8-5.3c1.2-1.3,2.9-1.9,5-1.9
			h31.9c2.1,0,3.6,0.5,4.5,1.5s1.5,2.3,1.5,4v0.4c0,3.7-2,5.5-6,5.5H1287v11.3h18.7c2.1,0,3.7,0.4,4.6,1.3c0.9,0.9,1.4,2.1,1.4,3.7
			v0.4c0,3.5-2,5.3-6,5.3H1287v12.5h26.1c4,0,6,1.7,6,5.1v0.5c0,3.8-2,5.7-6,5.7H1280.7z"/>
		<path class="st16" d="M1332,76.2c-1.8,0-3.1-0.5-3.9-1.5c-0.8-1-1.2-2.5-1.2-4.4V24.9c0-2.1,0.6-3.7,1.7-4.9
			c1.1-1.1,2.7-1.7,4.8-1.7h3.6c2,0,3.4,0.3,4.3,1c0.9,0.7,1.7,1.9,2.5,3.6l11.6,27.1L1367,23c0.8-1.8,1.7-3,2.6-3.6
			c0.9-0.6,2.2-1,4.1-1h3.4c2.1,0,3.8,0.6,4.9,1.7c1.1,1.1,1.7,2.7,1.7,4.9v45.4c0,1.9-0.4,3.4-1.1,4.4c-0.8,1-2.1,1.5-4,1.5h-2
			c-3.4,0-5.1-2-5.1-5.9v-34l-9.5,23.1c-0.2,0.5-0.5,1-0.7,1.5c-0.2,0.5-0.6,0.9-1,1.3c-0.4,0.4-1,0.7-1.8,0.9
			c-0.8,0.2-1.8,0.3-3.1,0.3c-1.3,0-2.3-0.1-3.1-0.3c-0.8-0.2-1.4-0.5-1.8-0.8c-0.4-0.4-0.7-0.8-1-1.3c-0.2-0.5-0.5-1-0.7-1.6
			l-9.5-22.7v33.6c0,1.9-0.4,3.4-1.1,4.4c-0.8,1-2.1,1.5-4,1.5H1332z"/>
		<path class="st16" d="M1422.1,70.3c0,3.9-1.9,5.9-5.7,5.9h-1.8c-3.7,0-5.6-2-5.6-5.9V52.9l-20-29.5c-0.1-0.2,0-0.5,0.2-1.1
			c0.3-0.6,0.7-1.1,1.4-1.7c0.6-0.6,1.5-1.1,2.7-1.5c1.1-0.5,2.5-0.7,4.1-0.7c1.2,0,2.3,0.4,3.4,1.1c1.1,0.7,2,1.9,2.8,3.4l12,19.6
			l12.2-19.5c1-1.7,2-2.9,3.1-3.6c1.1-0.7,2.1-1,3.2-1c1.5,0,2.7,0.2,3.8,0.7c1,0.5,1.9,1,2.6,1.6c0.7,0.6,1.1,1.1,1.4,1.7
			s0.3,0.9,0.2,1.1l-19.9,29.5V70.3z"/>
	</g>
	<g class="st15">
		<path class="st17" d="M621.6,162.9c-1.9,3.3-4.6,5.9-8.2,7.7c-3.6,1.8-7.8,2.7-12.6,2.7c-4.3,0-8.1-0.8-11.6-2.3
			c-3.4-1.5-6.4-3.6-8.8-6.4c-2.4-2.7-4.3-6-5.6-9.7c-1.3-3.8-2-7.8-2-12.2c0-4.5,0.7-8.7,2.2-12.4c1.5-3.8,3.5-7,6.1-9.7
			c2.6-2.7,5.7-4.8,9.3-6.4c3.6-1.5,7.6-2.3,12-2.3c3.5,0,6.7,0.4,9.4,1.3c2.7,0.9,5,2,6.9,3.2c1.9,1.3,3.3,2.5,4.3,3.9
			c1,1.3,1.5,2.4,1.5,3.3c0,0.9-0.2,1.5-0.5,2.1c-0.4,0.5-0.8,0.9-1.2,1.1c-0.5,0.2-0.9,0.4-1.3,0.4c-0.4,0-0.6,0-0.7,0
			c-0.9-1.6-2.1-3.1-3.4-4.3c-1.4-1.2-2.9-2.2-4.5-3.1c-1.6-0.8-3.4-1.4-5.2-1.9c-1.8-0.4-3.6-0.6-5.4-0.6c-3.4,0-6.5,0.6-9.4,1.8
			s-5.3,2.9-7.3,5.2c-2,2.2-3.6,4.9-4.7,8c-1.1,3.1-1.7,6.5-1.7,10.3c0,3.7,0.5,7,1.5,10.2c1,3.1,2.5,5.8,4.4,8c1.9,2.2,4.3,4,7,5.3
			c2.7,1.3,5.9,1.9,9.4,1.9c2.7,0,5.2-0.4,7.5-1.1c2.3-0.7,4.3-1.8,6-3.1c1.7-1.3,3.2-2.9,4.3-4.8c1.1-1.9,1.8-3.9,2.2-6.2v-5.1H605
			c-2.3,0-3.4-0.9-3.4-2.6v-0.4c0-1.8,1.1-2.7,3.4-2.7h17.6c1.3,0,2.4,0.4,3.3,1.3c0.9,0.9,1.3,2,1.3,3.2v25.4
			c0,0.1-0.2,0.3-0.5,0.4c-0.4,0.2-0.9,0.2-1.5,0.2c-1,0-1.9-0.4-2.5-1.1s-1-2.3-1-4.9V162.9z"/>
		<path class="st17" d="M687.2,169.7c0.1,0.1,0.1,0.3,0,0.6c-0.2,0.3-0.4,0.6-0.7,1c-0.3,0.3-0.7,0.6-1.2,0.9
			c-0.5,0.3-1.1,0.4-1.7,0.4c-0.6,0-1.2-0.2-1.9-0.5c-0.6-0.3-1.3-0.9-2-1.7l-19.2-23.1H653v22.4c0,0.8-0.2,1.5-0.7,2
			c-0.5,0.5-1.1,0.8-2.1,0.8h-0.7c-1.8,0-2.7-0.9-2.7-2.8v-53.3c0-1,0.3-1.8,1-2.5c0.7-0.7,1.5-1,2.5-1h16.3c7,0,12.2,1.4,15.9,4.3
			c3.6,2.8,5.4,7.1,5.4,12.9c0,5.4-1.7,9.6-5,12.5c-3.4,3-8.2,4.5-14.6,4.7L687.2,169.7z M667.2,142c4.9,0,8.6-1.1,10.9-3.2
			c2.3-2.1,3.5-5,3.5-8.5c0-7.8-4.9-11.7-14.7-11.7H653V142H667.2z"/>
		<path class="st17" d="M732.6,173.3c-4.3,0-8.3-0.7-11.9-2.2c-3.6-1.5-6.7-3.6-9.3-6.3c-2.6-2.7-4.6-5.9-6-9.7
			c-1.4-3.8-2.2-7.9-2.2-12.4c0-4.5,0.7-8.7,2.2-12.4c1.5-3.8,3.5-7,6.1-9.7c2.6-2.7,5.7-4.8,9.3-6.4c3.6-1.5,7.6-2.3,11.9-2.3
			c4.3,0,8.3,0.7,11.9,2.2c3.6,1.5,6.7,3.6,9.3,6.3c2.6,2.7,4.6,5.9,6,9.7c1.4,3.8,2.2,7.9,2.2,12.4s-0.7,8.7-2.2,12.4
			c-1.4,3.8-3.5,7-6.1,9.7c-2.6,2.7-5.8,4.8-9.4,6.3C740.9,172.6,736.9,173.3,732.6,173.3z M732.7,167.9c3.4,0,6.4-0.6,9.2-1.8
			c2.8-1.2,5.2-2.9,7.3-5.2c2-2.2,3.6-4.9,4.8-8c1.1-3.1,1.7-6.5,1.7-10.2c0-3.7-0.6-7-1.7-10.2c-1.2-3.1-2.8-5.8-4.8-8.1
			c-2-2.3-4.5-4-7.3-5.3c-2.8-1.3-5.9-1.9-9.3-1.9c-3.4,0-6.4,0.6-9.2,1.9c-2.8,1.3-5.2,3-7.3,5.2c-2,2.2-3.6,4.9-4.8,8
			c-1.1,3.1-1.7,6.5-1.7,10.2c0,3.7,0.6,7.1,1.7,10.2c1.2,3.1,2.8,5.8,4.8,8c2,2.3,4.5,4,7.3,5.3
			C726.3,167.3,729.4,167.9,732.7,167.9z"/>
		<path class="st17" d="M802.7,173.3c-7.5,0-13.2-2.1-17.1-6.2c-3.9-4.1-5.9-10.2-5.9-18.2v-33.4c0-1.9,0.9-2.8,2.7-2.8h0.8
			c1.8,0,2.7,0.9,2.7,2.8v33c0,12.9,5.6,19.3,16.9,19.3c11.3,0,16.9-6.5,16.9-19.4v-32.9c0-1.9,0.9-2.8,2.6-2.8h1.1
			c1.6,0,2.5,0.9,2.5,2.8v33.1c0,8.1-2,14.2-5.9,18.4C816,171.2,810.2,173.3,802.7,173.3z"/>
		<path class="st17" d="M852.2,169.7c0,0.8-0.2,1.5-0.7,2c-0.5,0.5-1.1,0.8-2.1,0.8h-0.8c-1.8,0-2.7-0.9-2.7-2.8v-53.3
			c0-1,0.3-1.8,1-2.5c0.7-0.7,1.5-1,2.5-1h15.2c7,0,12.3,1.6,16.1,4.7c3.8,3.1,5.7,7.5,5.7,13.3c0,5.9-1.9,10.4-5.7,13.5
			c-3.8,3.1-9.4,4.7-16.8,4.7h-11.7V169.7z M864.4,143.7c5.2,0,9.1-1.1,11.7-3.2c2.6-2.1,3.9-5.2,3.9-9.3c0-8.4-5.1-12.5-15.3-12.5
			h-12.5v25.1H864.4z"/>
		<path class="st17" d="M906.9,172.2c-1,0-1.8-0.3-2.5-1c-0.7-0.7-1-1.5-1-2.5v-52.3c0-1,0.3-1.8,1-2.5c0.7-0.7,1.5-1,2.5-1h35.4
			c1.9,0,2.8,0.9,2.8,2.6v0.5c0,1.7-0.9,2.6-2.8,2.6h-32.7v20.4h26.2c1.9,0,2.8,0.9,2.8,2.6v0.4c0,1.7-0.9,2.6-2.8,2.6h-26.2v22
			h33.2c1.9,0,2.8,0.8,2.8,2.5v0.5c0,1.8-0.9,2.7-2.8,2.7H906.9z"/>
		<path class="st17" d="M1003.5,173.3c-3.3,0-6.3-0.4-9-1.2c-2.7-0.8-5-1.8-6.8-3c-1.9-1.2-3.3-2.5-4.3-3.8c-1-1.3-1.6-2.6-1.6-3.7
			c0-0.7,0.2-1.2,0.5-1.7s0.8-0.9,1.2-1.2c0.5-0.3,0.9-0.6,1.2-0.7c0.4-0.1,0.6-0.2,0.6-0.1c1.6,2.7,3.9,5.1,6.9,7
			c3,2,6.7,2.9,11.1,2.9c4.6,0,8.1-1,10.7-2.9c2.6-1.9,3.8-4.6,3.8-8.1c0-2-0.4-3.6-1.3-4.9c-0.9-1.3-2.1-2.4-3.6-3.2
			c-1.5-0.9-3.3-1.6-5.2-2.2c-2-0.6-4-1.1-6.1-1.6c-2.3-0.5-4.5-1.2-6.6-1.9c-2.2-0.7-4.1-1.7-5.8-2.9c-1.7-1.2-3.1-2.8-4.2-4.8
			c-1.1-1.9-1.6-4.3-1.6-7.3c0-2.3,0.5-4.5,1.5-6.5c1-2,2.4-3.7,4.2-5.2c1.8-1.5,3.9-2.6,6.3-3.4c2.4-0.8,5.1-1.2,7.9-1.2
			c3,0,5.8,0.4,8.2,1.1c2.4,0.7,4.5,1.6,6.2,2.6c1.7,1,3,2.2,3.8,3.3c0.9,1.2,1.3,2.3,1.3,3.2c0,0.7-0.2,1.3-0.5,1.7
			c-0.4,0.5-0.8,0.9-1.2,1.2c-0.5,0.3-0.9,0.6-1.2,0.7s-0.6,0.2-0.6,0.1c-1.4-2.4-3.5-4.5-6.2-6.1c-2.7-1.6-6-2.5-9.6-2.5
			c-4.2,0-7.5,1-10.1,2.9c-2.6,2-3.8,4.5-3.8,7.8c0,1.9,0.4,3.4,1.1,4.7c0.7,1.2,1.8,2.2,3.1,3c1.3,0.8,2.9,1.4,4.8,2
			c1.9,0.5,3.9,1.1,6.2,1.6c2.4,0.5,4.7,1.2,7,2c2.3,0.8,4.4,1.8,6.2,3.1c1.8,1.3,3.3,2.9,4.4,4.9c1.1,2,1.7,4.4,1.7,7.4
			c0,2.5-0.5,4.8-1.5,6.8c-1,2-2.4,3.8-4.2,5.3c-1.8,1.5-4,2.6-6.5,3.4C1009.4,172.9,1006.6,173.3,1003.5,173.3z"/>
		<path class="st17" d="M1068.7,173.3c-4.3,0-8.3-0.7-11.9-2.2c-3.6-1.5-6.7-3.6-9.3-6.3c-2.6-2.7-4.6-5.9-6-9.7
			c-1.4-3.8-2.2-7.9-2.2-12.4c0-4.5,0.7-8.7,2.2-12.4c1.5-3.8,3.5-7,6.1-9.7c2.6-2.7,5.7-4.8,9.3-6.4c3.6-1.5,7.6-2.3,12-2.3
			c3.5,0,6.7,0.4,9.4,1.3c2.7,0.9,5,2,6.9,3.2c1.9,1.3,3.3,2.5,4.3,3.9c1,1.3,1.5,2.4,1.5,3.3c0,0.8-0.2,1.5-0.5,2
			c-0.4,0.5-0.8,0.9-1.2,1.2c-0.5,0.3-0.9,0.5-1.2,0.5s-0.6,0.1-0.6,0c-0.9-1.6-2.1-3.1-3.5-4.3c-1.4-1.2-2.9-2.3-4.6-3.2
			c-1.6-0.9-3.4-1.5-5.2-1.9c-1.8-0.4-3.6-0.6-5.4-0.6c-3.4,0-6.5,0.6-9.3,1.9c-2.8,1.3-5.3,3-7.3,5.2c-2,2.2-3.6,4.9-4.8,8
			c-1.1,3.1-1.7,6.5-1.7,10.2c0,3.7,0.6,7,1.7,10.2c1.2,3.1,2.8,5.8,4.9,8.1c2.1,2.3,4.5,4,7.4,5.3c2.8,1.3,5.9,1.9,9.3,1.9
			c2.2,0,4.3-0.3,6.3-0.8c2-0.5,3.9-1.3,5.5-2.3c1.7-1,3.1-2.2,4.4-3.7c1.2-1.4,2.2-3,2.9-4.8c0-0.1,0.2-0.1,0.6,0
			c0.4,0.1,0.9,0.3,1.4,0.5c0.5,0.3,1,0.7,1.4,1.2c0.4,0.5,0.6,1.2,0.6,2c0,1-0.5,2.2-1.5,3.7s-2.5,3-4.5,4.4
			c-2,1.4-4.4,2.7-7.3,3.7C1076,172.8,1072.6,173.3,1068.7,173.3z"/>
		<path class="st17" d="M1136,173.3c-4.3,0-8.3-0.7-11.9-2.2c-3.6-1.5-6.7-3.6-9.3-6.3c-2.6-2.7-4.6-5.9-6-9.7
			c-1.4-3.8-2.2-7.9-2.2-12.4c0-4.5,0.7-8.7,2.2-12.4c1.5-3.8,3.5-7,6.1-9.7c2.6-2.7,5.7-4.8,9.3-6.4c3.6-1.5,7.6-2.3,11.9-2.3
			c4.3,0,8.3,0.7,11.9,2.2c3.6,1.5,6.7,3.6,9.3,6.3c2.6,2.7,4.6,5.9,6,9.7c1.4,3.8,2.2,7.9,2.2,12.4s-0.7,8.7-2.2,12.4
			c-1.4,3.8-3.5,7-6.1,9.7c-2.6,2.7-5.8,4.8-9.4,6.3C1144.3,172.6,1140.3,173.3,1136,173.3z M1136.2,167.9c3.4,0,6.4-0.6,9.2-1.8
			c2.8-1.2,5.2-2.9,7.3-5.2c2-2.2,3.6-4.9,4.8-8c1.1-3.1,1.7-6.5,1.7-10.2c0-3.7-0.6-7-1.7-10.2c-1.2-3.1-2.8-5.8-4.8-8.1
			c-2-2.3-4.5-4-7.3-5.3c-2.8-1.3-5.9-1.9-9.3-1.9c-3.4,0-6.4,0.6-9.2,1.9c-2.8,1.3-5.2,3-7.3,5.2c-2,2.2-3.6,4.9-4.8,8
			c-1.1,3.1-1.7,6.5-1.7,10.2c0,3.7,0.6,7.1,1.7,10.2c1.2,3.1,2.8,5.8,4.8,8c2,2.3,4.5,4,7.3,5.3
			C1129.7,167.3,1132.8,167.9,1136.2,167.9z"/>
		<path class="st17" d="M1187.5,172.2c-1,0-1.8-0.3-2.5-1c-0.7-0.7-1-1.5-1-2.5v-53.3c0-1.9,0.9-2.8,2.7-2.8h0.8
			c1.8,0,2.7,0.9,2.7,2.8v51h28.6c1.9,0,2.8,0.9,2.8,2.7v0.5c0,1.8-0.9,2.7-2.8,2.7H1187.5z"/>
		<path class="st17" d="M1246.4,152.9l-6.4,16.8c-0.4,1.1-1,1.8-1.6,2.2c-0.6,0.4-1.3,0.6-2,0.6c-0.9,0-1.8-0.2-2.5-0.7
			c-0.8-0.5-1.1-0.9-1-1.1l21.7-56c0.3-0.8,0.8-1.4,1.5-1.7c0.7-0.4,1.7-0.5,3.2-0.5s2.5,0.2,3.2,0.5c0.7,0.4,1.2,0.9,1.5,1.7
			l21.7,56c0.1,0.2-0.2,0.6-1,1.1c-0.8,0.5-1.6,0.7-2.6,0.7c-0.7,0-1.4-0.2-2.1-0.6c-0.7-0.4-1.2-1.1-1.6-2.2l-6.4-16.8H1246.4z
			 M1269.8,147.4l-10.6-27.9l-10.7,27.9H1269.8z"/>
		<path class="st17" d="M1304.7,172.6c-1.8,0-2.7-0.9-2.7-2.8v-54.3c0-1.9,0.9-2.8,2.7-2.8h0.8c1.8,0,2.7,0.9,2.7,2.8v54.3
			c0,1.9-0.9,2.8-2.7,2.8H1304.7z"/>
		<path class="st17" d="M1370.5,169.7c0.1,0.1,0.1,0.3,0,0.6c-0.2,0.3-0.4,0.6-0.7,1c-0.3,0.3-0.7,0.6-1.2,0.9s-1.1,0.4-1.7,0.4
			c-0.6,0-1.2-0.2-1.9-0.5s-1.3-0.9-2-1.7l-19.2-23.1h-7.4v22.4c0,0.8-0.2,1.5-0.7,2c-0.5,0.5-1.1,0.8-2.1,0.8h-0.7
			c-1.8,0-2.7-0.9-2.7-2.8v-53.3c0-1,0.3-1.8,1-2.5c0.7-0.7,1.5-1,2.5-1h16.3c7,0,12.2,1.4,15.9,4.3c3.6,2.8,5.4,7.1,5.4,12.9
			c0,5.4-1.7,9.6-5,12.5c-3.4,3-8.2,4.5-14.6,4.7L1370.5,169.7z M1350.5,142c4.9,0,8.6-1.1,10.9-3.2c2.3-2.1,3.5-5,3.5-8.5
			c0-7.8-4.9-11.7-14.7-11.7h-13.8V142H1350.5z"/>
		<path class="st17" d="M1392.4,172.2c-1,0-1.8-0.3-2.5-1c-0.7-0.7-1-1.5-1-2.5v-52.3c0-1,0.3-1.8,1-2.5c0.7-0.7,1.5-1,2.5-1h35.4
			c1.9,0,2.8,0.9,2.8,2.6v0.5c0,1.7-0.9,2.6-2.8,2.6h-32.7v20.4h26.2c1.9,0,2.8,0.9,2.8,2.6v0.4c0,1.7-0.9,2.6-2.8,2.6h-26.2v22
			h33.2c1.9,0,2.8,0.8,2.8,2.5v0.5c0,1.8-0.9,2.7-2.8,2.7H1392.4z"/>
	</g>
</g>
<g>
	<g>
		<g class="st8">
			<path class="st9" d="M578.1,224c0-0.2,0.1-0.4,0.4-0.4h5.4c0.3,0,0.5,0.1,0.6,0.4l5.7,13h0.1l5.6-13c0.1-0.2,0.3-0.4,0.6-0.4h5.3
				c0.2,0,0.4,0.1,0.4,0.4v24.1c0,0.2-0.1,0.4-0.4,0.4h-5.1c-0.2,0-0.4-0.1-0.4-0.4v-12.8h-0.2l-4,9.3c-0.1,0.2-0.2,0.3-0.3,0.4
				c-0.1,0.1-0.2,0.1-0.4,0.1h-2.8c-0.3,0-0.5-0.2-0.7-0.5l-4-9.3H584v12.8c0,0.2-0.1,0.4-0.4,0.4h-5.1c-0.2,0-0.4-0.1-0.4-0.4V224z
				"/>
			<path class="st9" d="M616.9,224c0.1-0.2,0.2-0.4,0.5-0.4h5.9c0.2,0,0.4,0.1,0.5,0.4l8.4,24.1c0.1,0.2,0,0.4-0.3,0.4h-6
				c-0.2,0-0.4-0.1-0.5-0.4l-1.2-3.8h-8.1l-1.2,3.8c-0.1,0.2-0.2,0.4-0.5,0.4h-6c-0.2,0-0.3-0.1-0.3-0.4L616.9,224z M622.7,238.9
				l-2.3-7.7h-0.1l-2.4,7.7H622.7z"/>
			<path class="st9" d="M641.2,248.4h-0.1c0,0-0.1,0-0.2-0.1c0,0-0.1-0.1-0.1-0.1v-0.1v-18.5c0-0.1-0.1-0.2-0.2-0.2h0h-6.1h-0.1
				c0,0-0.1,0-0.1-0.1l0,0l0,0c0,0,0-0.1,0-0.2v-5c0-0.2,0.1-0.3,0.3-0.4h0.1h19.1c0.1,0,0.2,0,0.3,0.1l0,0.1c0,0,0.1,0.1,0.1,0.2v5
				c0,0.1,0,0.2-0.1,0.3c0,0-0.1,0.1-0.2,0.1h-0.1h-6.1c-0.1,0-0.1,0-0.1,0l-0.1,0.1v0.1v18.5v0.1c0,0.1-0.1,0.1-0.2,0.2
				c0,0-0.1,0-0.2,0H641.2z"/>
			<path class="st9" d="M660,224c0-0.2,0.1-0.4,0.4-0.4h16.2c0.2,0,0.4,0.1,0.4,0.4v4.7c0,0.2-0.1,0.4-0.4,0.4h-10
				c-0.1,0-0.2,0.1-0.2,0.2v3.8c0,0.1,0.1,0.2,0.2,0.2h8.2c0.2,0,0.4,0.1,0.4,0.4v4.6c0,0.2-0.1,0.4-0.4,0.4h-8.2
				c-0.1,0-0.2,0.1-0.2,0.2v4c0,0.1,0.1,0.2,0.2,0.2h10c0.2,0,0.4,0.1,0.4,0.4v4.7c0,0.2-0.1,0.4-0.4,0.4h-16.2
				c-0.2,0-0.4-0.1-0.4-0.4V224z"/>
			<path class="st9" d="M697.3,248.4c-0.3,0-0.5-0.1-0.5-0.4l-3.8-8.5h-2.4c-0.1,0-0.2,0.1-0.2,0.2v8.2c0,0.2-0.1,0.4-0.4,0.4h-5.7
				c-0.2,0-0.4-0.1-0.4-0.4V224c0-0.2,0.1-0.4,0.4-0.4h10.1c1.4,0,2.7,0.2,3.8,0.6c1.1,0.4,2.1,0.9,2.8,1.7c0.8,0.7,1.3,1.6,1.7,2.5
				c0.4,1,0.6,2,0.6,3.2c0,1.6-0.4,2.9-1.1,4.1c-0.7,1.2-1.7,2.1-3,2.8l4.6,9.5c0,0.1,0,0.2,0,0.3c0,0.1-0.1,0.1-0.3,0.1H697.3z
				 M694.1,234.3c0.9,0,1.6-0.2,2.2-0.7c0.5-0.5,0.8-1.1,0.8-1.9c0-0.8-0.3-1.4-0.8-1.9c-0.5-0.5-1.2-0.7-2.2-0.7h-3.4
				c-0.1,0-0.2,0.1-0.2,0.2v4.8c0,0.1,0.1,0.2,0.2,0.2H694.1z"/>
			<path class="st9" d="M710.6,224c0-0.2,0.1-0.4,0.4-0.4h5.4c0.3,0,0.5,0.1,0.6,0.4l7.5,14.1h0.1V224c0-0.2,0.1-0.4,0.4-0.4h5.1
				c0.2,0,0.4,0.1,0.4,0.4v24.1c0,0.2-0.1,0.4-0.4,0.4h-5.4c-0.3,0-0.5-0.1-0.6-0.4l-7.4-14h-0.2v14c0,0.2-0.1,0.4-0.4,0.4H711
				c-0.2,0-0.4-0.1-0.4-0.4V224z"/>
			<path class="st9" d="M738.1,224c0-0.2,0.1-0.4,0.4-0.4h16.2c0.2,0,0.4,0.1,0.4,0.4v4.7c0,0.2-0.1,0.4-0.4,0.4h-10
				c-0.1,0-0.2,0.1-0.2,0.2v3.8c0,0.1,0.1,0.2,0.2,0.2h8.2c0.2,0,0.4,0.1,0.4,0.4v4.6c0,0.2-0.1,0.4-0.4,0.4h-8.2
				c-0.1,0-0.2,0.1-0.2,0.2v4c0,0.1,0.1,0.2,0.2,0.2h10c0.2,0,0.4,0.1,0.4,0.4v4.7c0,0.2-0.1,0.4-0.4,0.4h-16.2
				c-0.2,0-0.4-0.1-0.4-0.4V224z"/>
			<path class="st9" d="M762.1,224c0-0.2,0.1-0.4,0.4-0.4h5.7c0.2,0,0.4,0.1,0.4,0.4v18.5c0,0.1,0.1,0.2,0.2,0.2h10.5
				c0.2,0,0.4,0.1,0.4,0.4v5c0,0.2-0.1,0.4-0.4,0.4h-16.8c-0.2,0-0.4-0.1-0.4-0.4V224z"/>
			<path class="st9" d="M785.9,224c0-0.2,0.1-0.4,0.4-0.4h5.7c0.2,0,0.4,0.1,0.4,0.4v18.5c0,0.1,0.1,0.2,0.2,0.2h10.5
				c0.2,0,0.4,0.1,0.4,0.4v5c0,0.2-0.1,0.4-0.4,0.4h-16.8c-0.2,0-0.4-0.1-0.4-0.4V224z"/>
			<path class="st9" d="M809.8,224c0-0.2,0.1-0.4,0.4-0.4h16.2c0.2,0,0.4,0.1,0.4,0.4v4.7c0,0.2-0.1,0.4-0.4,0.4h-10
				c-0.1,0-0.2,0.1-0.2,0.2v3.8c0,0.1,0.1,0.2,0.2,0.2h8.2c0.2,0,0.4,0.1,0.4,0.4v4.6c0,0.2-0.1,0.4-0.4,0.4h-8.2
				c-0.1,0-0.2,0.1-0.2,0.2v4c0,0.1,0.1,0.2,0.2,0.2h10c0.2,0,0.4,0.1,0.4,0.4v4.7c0,0.2-0.1,0.4-0.4,0.4h-16.2
				c-0.2,0-0.4-0.1-0.4-0.4V224z"/>
			<path class="st9" d="M845.5,241v-4.6c0-0.2,0.1-0.4,0.4-0.4h11c0.2,0,0.4,0.1,0.4,0.4v4.6c0,0.2-0.1,0.4-0.4,0.4h-11
				C845.7,241.4,845.5,241.3,845.5,241z"/>
			<path class="st9" d="M877,248.4c-0.2,0-0.4-0.1-0.4-0.4V224c0-0.2,0.1-0.4,0.4-0.4h9.9c1.5,0,2.8,0.2,4,0.6
				c1.2,0.4,2.1,1,2.9,1.7c0.8,0.7,1.3,1.6,1.7,2.6c0.4,1,0.6,2.1,0.6,3.3c0,1.2-0.2,2.3-0.6,3.3c-0.4,1-1,1.9-1.8,2.6
				c-0.8,0.7-1.7,1.3-2.9,1.7c-1.1,0.4-2.5,0.6-4,0.6h-3.7c-0.1,0-0.2,0.1-0.2,0.2v7.7c0,0.2-0.1,0.4-0.4,0.4H877z M886.6,234.7
				c1,0,1.8-0.3,2.3-0.8c0.5-0.5,0.8-1.2,0.8-2.1c0-0.9-0.3-1.5-0.8-2c-0.5-0.5-1.3-0.8-2.3-0.8h-3.3c-0.1,0-0.2,0.1-0.2,0.2v5.2
				c0,0.1,0.1,0.2,0.2,0.2H886.6z"/>
			<path class="st9" d="M916,248.4c-0.3,0-0.5-0.1-0.5-0.4l-3.8-8.5h-2.4c-0.1,0-0.2,0.1-0.2,0.2v8.2c0,0.2-0.1,0.4-0.4,0.4H903
				c-0.2,0-0.4-0.1-0.4-0.4V224c0-0.2,0.1-0.4,0.4-0.4h10.1c1.4,0,2.7,0.2,3.8,0.6c1.1,0.4,2.1,0.9,2.8,1.7c0.8,0.7,1.3,1.6,1.7,2.5
				c0.4,1,0.6,2,0.6,3.2c0,1.6-0.4,2.9-1.1,4.1c-0.7,1.2-1.7,2.1-3,2.8l4.6,9.5c0,0.1,0,0.2,0,0.3c0,0.1-0.1,0.1-0.3,0.1H916z
				 M912.7,234.3c0.9,0,1.6-0.2,2.2-0.7c0.5-0.5,0.8-1.1,0.8-1.9c0-0.8-0.3-1.4-0.8-1.9c-0.5-0.5-1.2-0.7-2.2-0.7h-3.4
				c-0.1,0-0.2,0.1-0.2,0.2v4.8c0,0.1,0.1,0.2,0.2,0.2H912.7z"/>
			<path class="st9" d="M929.3,224c0-0.2,0.1-0.4,0.4-0.4h5.7c0.2,0,0.4,0.1,0.4,0.4v24.1c0,0.2-0.1,0.4-0.4,0.4h-5.7
				c-0.2,0-0.4-0.1-0.4-0.4V224z"/>
			<path class="st9" d="M943.4,224c0-0.2,0.1-0.4,0.4-0.4h5.4c0.3,0,0.5,0.1,0.6,0.4l5.7,13h0.1l5.6-13c0.1-0.2,0.3-0.4,0.6-0.4h5.3
				c0.2,0,0.4,0.1,0.4,0.4v24.1c0,0.2-0.1,0.4-0.4,0.4h-5.1c-0.2,0-0.4-0.1-0.4-0.4v-12.8h-0.2l-4,9.3c-0.1,0.2-0.2,0.3-0.3,0.4
				c-0.1,0.1-0.2,0.1-0.4,0.1H954c-0.3,0-0.5-0.2-0.7-0.5l-4-9.3h-0.2v12.8c0,0.2-0.1,0.4-0.4,0.4h-5.1c-0.2,0-0.4-0.1-0.4-0.4V224z
				"/>
			<path class="st9" d="M982.1,224c0.1-0.2,0.2-0.4,0.5-0.4h5.9c0.2,0,0.4,0.1,0.5,0.4l8.4,24.1c0.1,0.2,0,0.4-0.3,0.4h-6
				c-0.2,0-0.4-0.1-0.5-0.4l-1.2-3.8h-8.1l-1.2,3.8c-0.1,0.2-0.2,0.4-0.5,0.4h-6c-0.2,0-0.3-0.1-0.3-0.4L982.1,224z M987.9,238.9
				l-2.3-7.7h-0.1l-2.4,7.7H987.9z"/>
			<path class="st9" d="M1003.4,224c0-0.2,0.1-0.4,0.4-0.4h5.7c0.2,0,0.4,0.1,0.4,0.4v24.1c0,0.2-0.1,0.4-0.4,0.4h-5.7
				c-0.2,0-0.4-0.1-0.4-0.4V224z"/>
			<path class="st9" d="M1030.9,248.4c-0.3,0-0.5-0.1-0.5-0.4l-3.8-8.5h-2.4c-0.1,0-0.2,0.1-0.2,0.2v8.2c0,0.2-0.1,0.4-0.4,0.4h-5.7
				c-0.2,0-0.4-0.1-0.4-0.4V224c0-0.2,0.1-0.4,0.4-0.4h10.1c1.4,0,2.7,0.2,3.8,0.6c1.1,0.4,2.1,0.9,2.8,1.7c0.8,0.7,1.3,1.6,1.7,2.5
				c0.4,1,0.6,2,0.6,3.2c0,1.6-0.4,2.9-1.1,4.1c-0.7,1.2-1.7,2.1-3,2.8l4.6,9.5c0,0.1,0,0.2,0,0.3c0,0.1-0.1,0.1-0.3,0.1H1030.9z
				 M1027.6,234.3c0.9,0,1.6-0.2,2.2-0.7c0.5-0.5,0.8-1.1,0.8-1.9c0-0.8-0.3-1.4-0.8-1.9c-0.5-0.5-1.2-0.7-2.2-0.7h-3.4
				c-0.1,0-0.2,0.1-0.2,0.2v4.8c0,0.1,0.1,0.2,0.2,0.2H1027.6z"/>
			<path class="st9" d="M1044.1,224c0-0.2,0.1-0.4,0.4-0.4h16.2c0.2,0,0.4,0.1,0.4,0.4v4.7c0,0.2-0.1,0.4-0.4,0.4h-10
				c-0.1,0-0.2,0.1-0.2,0.2v3.8c0,0.1,0.1,0.2,0.2,0.2h8.2c0.2,0,0.4,0.1,0.4,0.4v4.6c0,0.2-0.1,0.4-0.4,0.4h-8.2
				c-0.1,0-0.2,0.1-0.2,0.2v4c0,0.1,0.1,0.2,0.2,0.2h10c0.2,0,0.4,0.1,0.4,0.4v4.7c0,0.2-0.1,0.4-0.4,0.4h-16.2
				c-0.2,0-0.4-0.1-0.4-0.4V224z"/>
			<path class="st9" d="M1079.9,241v-4.6c0-0.2,0.1-0.4,0.4-0.4h11c0.2,0,0.4,0.1,0.4,0.4v4.6c0,0.2-0.1,0.4-0.4,0.4h-11
				C1080,241.4,1079.9,241.3,1079.9,241z"/>
			<path class="st9" d="M1111.2,242.8c-0.1-0.4-0.3-0.8-0.3-1.2s-0.2-0.9-0.2-1.4c-0.1-0.5-0.1-1.1-0.1-1.7c0-0.7,0-1.4,0-2.4
				s0-1.7,0-2.4c0-0.7,0.1-1.2,0.1-1.7c0.1-0.5,0.1-1,0.2-1.4s0.2-0.8,0.3-1.2c0.7-2,1.8-3.6,3.3-4.6c1.5-1,3.4-1.5,5.7-1.5
				c2.2,0,4.1,0.5,5.6,1.5c1.5,1,2.6,2.4,3.3,4.2c0.1,0.2,0,0.4-0.2,0.5l-4.9,2.1c-0.2,0.1-0.4,0-0.5-0.2c-0.3-0.7-0.8-1.3-1.2-1.7
				c-0.5-0.4-1.2-0.6-2-0.6c-1.5,0-2.5,0.7-3,2.2c-0.1,0.2-0.1,0.4-0.2,0.6c0,0.2-0.1,0.5-0.1,0.9s-0.1,0.8-0.1,1.4
				c0,0.6,0,1.3,0,2.1c0,0.9,0,1.6,0,2.1s0,1,0.1,1.4s0.1,0.6,0.1,0.9c0,0.2,0.1,0.4,0.2,0.6c0.5,1.4,1.5,2.2,3,2.2
				c0.9,0,1.5-0.2,2-0.6c0.5-0.4,0.9-1,1.2-1.7c0.1-0.2,0.3-0.3,0.5-0.2l4.9,2.1c0.2,0.1,0.3,0.3,0.2,0.5c-0.7,1.8-1.8,3.2-3.3,4.2
				c-1.5,1-3.4,1.5-5.6,1.5c-2.3,0-4.2-0.5-5.7-1.5C1112.9,246.3,1111.8,244.8,1111.2,242.8z"/>
			<path class="st9" d="M1145.1,248.9c-2.2,0-4.1-0.5-5.8-1.5c-1.7-1-2.8-2.5-3.5-4.6c-0.1-0.5-0.3-0.9-0.4-1.4
				c-0.1-0.5-0.2-0.9-0.2-1.4s-0.1-1.1-0.1-1.7s0-1.4,0-2.2c0-0.9,0-1.6,0-2.2c0-0.6,0.1-1.2,0.1-1.7c0-0.5,0.1-1,0.2-1.4
				c0.1-0.4,0.2-0.9,0.4-1.4c0.7-2,1.8-3.5,3.5-4.6c1.7-1,3.6-1.5,5.8-1.5c2.2,0,4.1,0.5,5.8,1.5c1.7,1,2.8,2.5,3.5,4.6
				c0.1,0.5,0.3,0.9,0.4,1.4c0.1,0.4,0.2,0.9,0.2,1.4c0.1,0.5,0.1,1.1,0.1,1.7c0,0.6,0,1.4,0,2.2c0,0.9,0,1.6,0,2.2
				c0,0.6,0,1.2-0.1,1.7c-0.1,0.5-0.1,1-0.2,1.4c-0.1,0.5-0.2,0.9-0.4,1.4c-0.7,2-1.8,3.5-3.5,4.6
				C1149.2,248.4,1147.2,248.9,1145.1,248.9z M1145.1,243.2c0.8,0,1.5-0.2,2-0.6c0.5-0.4,0.9-0.9,1.2-1.6c0.1-0.2,0.1-0.5,0.2-0.7
				c0-0.3,0.1-0.6,0.1-0.9c0-0.4,0-0.8,0.1-1.4c0-0.5,0-1.2,0-1.9c0-0.7,0-1.4,0-1.9c0-0.5,0-1-0.1-1.4c0-0.4-0.1-0.7-0.1-0.9
				c0-0.3-0.1-0.5-0.2-0.7c-0.2-0.7-0.6-1.2-1.2-1.6c-0.5-0.4-1.2-0.6-2-0.6s-1.5,0.2-2,0.6c-0.5,0.4-0.9,0.9-1.2,1.6
				c-0.1,0.2-0.1,0.5-0.2,0.7c0,0.3-0.1,0.6-0.1,0.9c0,0.4,0,0.8-0.1,1.4s0,1.2,0,1.9c0,0.7,0,1.4,0,1.9s0,1,0.1,1.4
				c0,0.4,0.1,0.7,0.1,0.9s0.1,0.5,0.2,0.7c0.2,0.7,0.6,1.2,1.2,1.6C1143.6,243,1144.3,243.2,1145.1,243.2z"/>
			<path class="st9" d="M1162.2,224c0-0.2,0.1-0.4,0.4-0.4h5.7c0.2,0,0.4,0.1,0.4,0.4v18.5c0,0.1,0.1,0.2,0.2,0.2h10.5
				c0.2,0,0.4,0.1,0.4,0.4v5c0,0.2-0.1,0.4-0.4,0.4h-16.8c-0.2,0-0.4-0.1-0.4-0.4V224z"/>
			<path class="st9" d="M1186,224c0-0.2,0.1-0.4,0.4-0.4h5.7c0.2,0,0.4,0.1,0.4,0.4v18.5c0,0.1,0.1,0.2,0.2,0.2h10.5
				c0.2,0,0.4,0.1,0.4,0.4v5c0,0.2-0.1,0.4-0.4,0.4h-16.8c-0.2,0-0.4-0.1-0.4-0.4V224z"/>
			<path class="st9" d="M1209.9,224c0-0.2,0.1-0.4,0.4-0.4h16.2c0.2,0,0.4,0.1,0.4,0.4v4.7c0,0.2-0.1,0.4-0.4,0.4h-10
				c-0.1,0-0.2,0.1-0.2,0.2v3.8c0,0.1,0.1,0.2,0.2,0.2h8.2c0.2,0,0.4,0.1,0.4,0.4v4.6c0,0.2-0.1,0.4-0.4,0.4h-8.2
				c-0.1,0-0.2,0.1-0.2,0.2v4c0,0.1,0.1,0.2,0.2,0.2h10c0.2,0,0.4,0.1,0.4,0.4v4.7c0,0.2-0.1,0.4-0.4,0.4h-16.2
				c-0.2,0-0.4-0.1-0.4-0.4V224z M1217.1,221.2c-0.3,0-0.5-0.1-0.7-0.3l-4.7-4.5c-0.1-0.1-0.1-0.2-0.1-0.3s0.1-0.1,0.2-0.1h5.2
				c0.2,0,0.5,0.1,0.7,0.4l3.7,4.5c0.1,0.1,0.1,0.2,0.1,0.3s-0.1,0.1-0.2,0.1H1217.1z"/>
			<path class="st9" d="M1234,242.8c-0.1-0.5-0.3-0.9-0.4-1.4c-0.1-0.5-0.2-0.9-0.2-1.4s-0.1-1.1-0.1-1.7s0-1.4,0-2.2
				c0-0.9,0-1.6,0-2.2c0-0.6,0.1-1.2,0.1-1.7c0-0.5,0.1-1,0.2-1.4c0.1-0.4,0.2-0.9,0.4-1.4c0.7-2,1.8-3.5,3.5-4.6
				c1.7-1,3.6-1.5,5.8-1.5c2.3,0,4.2,0.5,5.7,1.4c1.5,1,2.6,2.2,3.3,3.9c0.1,0.3,0.1,0.5-0.2,0.6l-4.7,2c-0.2,0.1-0.4,0.1-0.5-0.1
				c-0.4-0.7-0.9-1.2-1.4-1.5c-0.5-0.3-1.2-0.5-2.1-0.5s-1.5,0.2-2.1,0.6c-0.5,0.4-0.9,0.9-1.1,1.6c-0.1,0.2-0.1,0.5-0.2,0.7
				s-0.1,0.6-0.1,1c0,0.4,0,0.8-0.1,1.4c0,0.5,0,1.2,0,1.9c0,0.7,0,1.4,0,1.9s0,1,0.1,1.4c0,0.4,0.1,0.7,0.1,0.9
				c0,0.3,0.1,0.5,0.2,0.7c0.2,0.7,0.6,1.2,1.2,1.6c0.6,0.4,1.3,0.6,2.2,0.6c0.8,0,1.5-0.2,2.1-0.5c0.6-0.3,1-0.8,1.2-1.5
				c0.1-0.4,0.2-1,0.2-1.6c0-0.1-0.1-0.2-0.2-0.2h-2.7c-0.2,0-0.4-0.1-0.4-0.4v-4.1c0-0.2,0.1-0.4,0.4-0.4h8.9
				c0.2,0,0.4,0.1,0.4,0.4v1.9c0,1.2,0,2.3-0.1,3.2c-0.1,0.9-0.3,1.8-0.5,2.6c-0.7,2.1-1.8,3.6-3.4,4.7c-1.6,1.1-3.6,1.6-5.9,1.6
				c-2.2,0-4.2-0.5-5.8-1.5C1235.9,246.3,1234.7,244.8,1234,242.8z"/>
			<path class="st9" d="M1260.5,224c0-0.2,0.1-0.4,0.4-0.4h16.2c0.2,0,0.4,0.1,0.4,0.4v4.7c0,0.2-0.1,0.4-0.4,0.4h-10
				c-0.1,0-0.2,0.1-0.2,0.2v3.8c0,0.1,0.1,0.2,0.2,0.2h8.2c0.2,0,0.4,0.1,0.4,0.4v4.6c0,0.2-0.1,0.4-0.4,0.4h-8.2
				c-0.1,0-0.2,0.1-0.2,0.2v4c0,0.1,0.1,0.2,0.2,0.2h10c0.2,0,0.4,0.1,0.4,0.4v4.7c0,0.2-0.1,0.4-0.4,0.4h-16.2
				c-0.2,0-0.4-0.1-0.4-0.4V224z"/>
			<path class="st9" d="M1296.2,241v-4.6c0-0.2,0.1-0.4,0.4-0.4h11c0.2,0,0.4,0.1,0.4,0.4v4.6c0,0.2-0.1,0.4-0.4,0.4h-11
				C1296.3,241.4,1296.2,241.3,1296.2,241z"/>
			<path class="st9" d="M1327.3,224c0-0.2,0.1-0.4,0.4-0.4h5.7c0.2,0,0.4,0.1,0.4,0.4v18.5c0,0.1,0.1,0.2,0.2,0.2h10.5
				c0.2,0,0.4,0.1,0.4,0.4v5c0,0.2-0.1,0.4-0.4,0.4h-16.8c-0.2,0-0.4-0.1-0.4-0.4V224z"/>
			<path class="st9" d="M1353.8,248.4c-0.2,0-0.4-0.1-0.4-0.4v-9.2L1346,224c-0.1-0.3,0-0.4,0.3-0.4h5.7c0.2,0,0.4,0.1,0.6,0.4
				l4.2,8.5h0.1l4.1-8.5c0.1-0.2,0.3-0.4,0.6-0.4h5.6c0.3,0,0.4,0.1,0.3,0.4l-7.5,14.8v9.2c0,0.2-0.1,0.4-0.4,0.4H1353.8z"/>
			<path class="st9" d="M1372.7,242.8c-0.1-0.4-0.3-0.8-0.3-1.2s-0.2-0.9-0.2-1.4c-0.1-0.5-0.1-1.1-0.1-1.7c0-0.7,0-1.4,0-2.4
				s0-1.7,0-2.4c0-0.7,0.1-1.2,0.1-1.7c0.1-0.5,0.1-1,0.2-1.4s0.2-0.8,0.3-1.2c0.7-2,1.8-3.6,3.3-4.6c1.5-1,3.4-1.5,5.7-1.5
				c2.2,0,4.1,0.5,5.6,1.5c1.5,1,2.6,2.4,3.3,4.2c0.1,0.2,0,0.4-0.2,0.5l-4.9,2.1c-0.2,0.1-0.4,0-0.5-0.2c-0.3-0.7-0.8-1.3-1.2-1.7
				c-0.5-0.4-1.2-0.6-2-0.6c-1.5,0-2.5,0.7-3,2.2c-0.1,0.2-0.1,0.4-0.2,0.6c0,0.2-0.1,0.5-0.1,0.9s-0.1,0.8-0.1,1.4
				c0,0.6,0,1.3,0,2.1c0,0.9,0,1.6,0,2.1s0,1,0.1,1.4s0.1,0.6,0.1,0.9c0,0.2,0.1,0.4,0.2,0.6c0.5,1.4,1.5,2.2,3,2.2
				c0.9,0,1.5-0.2,2-0.6c0.5-0.4,0.9-1,1.2-1.7c0.1-0.2,0.3-0.3,0.5-0.2l4.9,2.1c0.2,0.1,0.3,0.3,0.2,0.5c-0.7,1.8-1.8,3.2-3.3,4.2
				c-1.5,1-3.4,1.5-5.6,1.5c-2.3,0-4.2-0.5-5.7-1.5C1374.4,246.3,1373.3,244.8,1372.7,242.8z"/>
			<path class="st9" d="M1397.1,224c0-0.2,0.1-0.4,0.4-0.4h16.2c0.2,0,0.4,0.1,0.4,0.4v4.7c0,0.2-0.1,0.4-0.4,0.4h-10
				c-0.1,0-0.2,0.1-0.2,0.2v3.8c0,0.1,0.1,0.2,0.2,0.2h8.2c0.2,0,0.4,0.1,0.4,0.4v4.6c0,0.2-0.1,0.4-0.4,0.4h-8.2
				c-0.1,0-0.2,0.1-0.2,0.2v4c0,0.1,0.1,0.2,0.2,0.2h10c0.2,0,0.4,0.1,0.4,0.4v4.7c0,0.2-0.1,0.4-0.4,0.4h-16.2
				c-0.2,0-0.4-0.1-0.4-0.4V224z M1402.2,221.2c-0.1,0-0.2,0-0.2-0.1s0-0.2,0.1-0.3l3.7-4.5c0.2-0.2,0.4-0.4,0.7-0.4h5.2
				c0.1,0,0.2,0,0.2,0.1c0,0.1,0,0.2-0.1,0.3l-4.7,4.5c-0.2,0.2-0.5,0.3-0.7,0.3H1402.2z"/>
			<path class="st9" d="M1421.1,224c0-0.2,0.1-0.4,0.4-0.4h16.2c0.2,0,0.4,0.1,0.4,0.4v4.7c0,0.2-0.1,0.4-0.4,0.4h-10
				c-0.1,0-0.2,0.1-0.2,0.2v3.8c0,0.1,0.1,0.2,0.2,0.2h8.2c0.2,0,0.4,0.1,0.4,0.4v4.6c0,0.2-0.1,0.4-0.4,0.4h-8.2
				c-0.1,0-0.2,0.1-0.2,0.2v4c0,0.1,0.1,0.2,0.2,0.2h10c0.2,0,0.4,0.1,0.4,0.4v4.7c0,0.2-0.1,0.4-0.4,0.4h-16.2
				c-0.2,0-0.4-0.1-0.4-0.4V224z"/>
		</g>
	</g>
	<g class="st8">
		<path class="st16" d="M581,75.9c-2.1,0-3.8-0.6-5-1.9c-1.2-1.3-1.8-3-1.8-5.3V26c0-2.3,0.6-4.1,1.8-5.3c1.2-1.3,2.9-1.9,5-1.9
			h19.6c6.5,0,11.4,1.3,14.8,3.8c3.4,2.5,5.1,6.1,5.1,10.9c0,3.2-0.9,5.8-2.6,7.7c-1.7,2-4.3,3.4-7.6,4.4c4.2,1,7.4,2.7,9.4,5.2
			c2,2.5,3,5.4,3,8.9c0,5.5-1.8,9.6-5.5,12.3c-3.7,2.7-9.5,4-17.6,4H581z M598,42.7c3,0,5.3-0.6,6.8-1.9c1.5-1.3,2.3-3.1,2.3-5.4
			c0-2.4-0.7-4.1-2.2-5.3c-1.4-1.1-3.8-1.7-6.9-1.7h-11v14.3H598z M598.7,66.2c3.9,0,6.6-0.6,8.2-1.8c1.6-1.2,2.4-3.2,2.4-6
			c0-2.5-0.8-4.4-2.5-5.6c-1.6-1.2-4.3-1.8-8-1.8H587v15.1H598.7z"/>
		<path class="st16" d="M643.8,61.3l-3.5,9.2c-0.8,2.2-1.9,3.8-3.2,4.7c-1.3,0.9-2.6,1.3-4,1.3c-0.9,0-1.8-0.1-2.7-0.4
			s-1.6-0.7-2.3-1.1c-0.6-0.4-1.1-0.9-1.5-1.3c-0.4-0.4-0.5-0.8-0.4-1.1l19.5-50.4c0.4-1.2,1.1-2.1,2.3-2.8c1.2-0.7,3.2-1.1,6.2-1.1
			c1.5,0,2.7,0.1,3.7,0.3c1,0.2,1.8,0.4,2.4,0.8c0.6,0.4,1.1,0.8,1.5,1.2c0.4,0.5,0.6,1,0.8,1.6l20,50.4c0.1,0.2,0,0.6-0.4,1.1
			c-0.4,0.5-0.9,0.9-1.5,1.4c-0.7,0.4-1.5,0.8-2.3,1.1c-0.9,0.3-1.8,0.5-2.8,0.5c-1.4,0-2.8-0.4-4.2-1.3c-1.4-0.9-2.5-2.5-3.4-4.9
			l-3.4-9H643.8z M661.9,51.6c-0.4-1.2-0.8-2.3-1.2-3.2c-0.4-1-0.8-2.1-1.3-3.4c-0.5-1.3-0.9-2.5-1.4-3.8l-3.9-10.4l-7.9,20.8H661.9
			z"/>
		<path class="st16" d="M695.3,75.9c-2.1,0-3.8-0.6-5-1.9c-1.2-1.3-1.8-3-1.8-5.3V26c0-2.3,0.6-4.1,1.8-5.3c1.2-1.3,2.9-1.9,5-1.9
			h19.6c6.5,0,11.4,1.3,14.8,3.8c3.4,2.5,5.1,6.1,5.1,10.9c0,3.2-0.9,5.8-2.6,7.7c-1.7,2-4.3,3.4-7.6,4.4c4.2,1,7.4,2.7,9.4,5.2
			c2,2.5,3,5.4,3,8.9c0,5.5-1.8,9.6-5.5,12.3c-3.7,2.7-9.5,4-17.6,4H695.3z M712.2,42.7c3,0,5.3-0.6,6.8-1.9
			c1.5-1.3,2.3-3.1,2.3-5.4c0-2.4-0.7-4.1-2.2-5.3c-1.4-1.1-3.8-1.7-6.9-1.7h-11v14.3H712.2z M712.9,66.2c3.9,0,6.6-0.6,8.2-1.8
			c1.6-1.2,2.4-3.2,2.4-6c0-2.5-0.8-4.4-2.5-5.6c-1.6-1.2-4.3-1.8-8-1.8h-11.8v15.1H712.9z"/>
		<path class="st16" d="M772.8,70.3c0,3.9-1.9,5.9-5.7,5.9h-1.8c-3.7,0-5.6-2-5.6-5.9V52.9l-20-29.5c-0.1-0.2,0-0.5,0.2-1.1
			c0.3-0.6,0.7-1.1,1.4-1.7c0.6-0.6,1.5-1.1,2.7-1.5c1.1-0.5,2.5-0.7,4.1-0.7c1.2,0,2.3,0.4,3.4,1.1c1.1,0.7,2,1.9,2.8,3.4l12,19.6
			L778.5,23c1-1.7,2-2.9,3.1-3.6c1.1-0.7,2.1-1,3.2-1c1.5,0,2.7,0.2,3.8,0.7c1,0.5,1.9,1,2.6,1.6c0.7,0.6,1.1,1.1,1.4,1.7
			s0.3,0.9,0.2,1.1l-19.9,29.5V70.3z"/>
		<path class="st16" d="M804.8,75.9c-2.1,0-3.8-0.6-5-1.9c-1.2-1.2-1.8-3-1.8-5.3V24.3c0-3.9,1.8-5.9,5.5-5.9h1.9
			c3.8,0,5.7,2,5.7,5.9v40.1h21.4c4,0,6,1.8,6,5.5v0.4c0,3.8-2,5.7-6,5.7H804.8z"/>
		<path class="st16" d="M869.6,77c-4.3,0-8.3-0.7-11.9-2.2c-3.6-1.4-6.7-3.5-9.3-6.1c-2.6-2.6-4.6-5.8-6.1-9.4
			c-1.4-3.7-2.2-7.7-2.2-12c0-4.4,0.7-8.4,2.2-12c1.5-3.7,3.5-6.8,6.1-9.4c2.6-2.6,5.7-4.7,9.3-6.1c3.6-1.5,7.5-2.2,11.8-2.2
			c4.4,0,8.3,0.7,11.9,2.2c3.6,1.5,6.7,3.5,9.3,6.1c2.6,2.6,4.6,5.7,6.1,9.4c1.4,3.6,2.2,7.6,2.2,12c0,4.4-0.7,8.4-2.2,12
			c-1.4,3.7-3.5,6.8-6.1,9.4c-2.6,2.6-5.7,4.7-9.3,6.1C878,76.3,874,77,869.6,77z M869.7,65.5c2.5,0,4.7-0.4,6.7-1.3
			c2-0.9,3.7-2.1,5.2-3.7c1.5-1.6,2.6-3.5,3.4-5.7c0.8-2.2,1.2-4.7,1.2-7.4c0-2.7-0.4-5.2-1.2-7.4c-0.8-2.2-2-4.2-3.4-5.8
			c-1.4-1.6-3.2-2.9-5.2-3.8s-4.3-1.3-6.8-1.3c-2.5,0-4.7,0.4-6.7,1.3c-2,0.9-3.7,2.1-5.2,3.7c-1.4,1.6-2.6,3.5-3.4,5.7
			c-0.8,2.2-1.2,4.7-1.2,7.5c0,2.7,0.4,5.2,1.2,7.4c0.8,2.2,1.9,4.2,3.4,5.7c1.5,1.6,3.2,2.8,5.2,3.7C865,65,867.3,65.5,869.7,65.5z
			"/>
		<path class="st16" d="M912.8,76.2c-3.6,0-5.4-2-5.4-5.9V24.8c0-2.1,0.5-3.7,1.5-4.8c1-1.1,2.4-1.7,4.2-1.7h1.6
			c1.7,0,3,0.3,3.8,0.9c0.9,0.6,1.8,1.5,2.8,2.8l24.7,34V24.3c0-3.9,1.9-5.9,5.6-5.9h1.2c3.7,0,5.5,2,5.5,5.9v45.5
			c0,2.1-0.5,3.7-1.5,4.8c-1,1.1-2.4,1.6-4.1,1.6h-1.1c-0.9,0-1.6-0.1-2.2-0.2c-0.6-0.1-1.1-0.3-1.5-0.6c-0.4-0.3-0.9-0.6-1.2-1
			c-0.4-0.4-0.8-0.9-1.3-1.5l-25.7-35.3v32.6c0,3.9-1.9,5.9-5.7,5.9H912.8z"/>
		<path class="st16" d="M975.3,75.9c-2.1,0-3.8-0.6-5-1.9c-1.2-1.2-1.8-3-1.8-5.3V26c0-2.3,0.6-4.1,1.8-5.3c1.2-1.3,2.9-1.9,5-1.9
			h31.9c2.1,0,3.6,0.5,4.5,1.5s1.5,2.3,1.5,4v0.4c0,3.7-2,5.5-6,5.5h-25.6v11.3h18.7c2.1,0,3.7,0.4,4.6,1.3c0.9,0.9,1.4,2.1,1.4,3.7
			v0.4c0,3.5-2,5.3-6,5.3h-18.7v12.5h26.1c4,0,6,1.7,6,5.1v0.5c0,3.8-2,5.7-6,5.7H975.3z"/>
		<path class="st16" d="M1049.8,61.3l-3.5,9.2c-0.8,2.2-1.9,3.8-3.2,4.7c-1.3,0.9-2.6,1.3-4,1.3c-0.9,0-1.8-0.1-2.7-0.4
			c-0.9-0.3-1.7-0.7-2.3-1.1c-0.6-0.4-1.1-0.9-1.5-1.3c-0.4-0.4-0.5-0.8-0.4-1.1l19.5-50.4c0.4-1.2,1.1-2.1,2.3-2.8
			c1.2-0.7,3.2-1.1,6.2-1.1c1.5,0,2.7,0.1,3.7,0.3c1,0.2,1.8,0.4,2.4,0.8c0.6,0.4,1.1,0.8,1.5,1.2c0.4,0.5,0.6,1,0.8,1.6l20,50.4
			c0.1,0.2,0,0.6-0.4,1.1c-0.4,0.5-0.9,0.9-1.5,1.4c-0.7,0.4-1.5,0.8-2.3,1.1c-0.9,0.3-1.8,0.5-2.8,0.5c-1.4,0-2.8-0.4-4.2-1.3
			c-1.4-0.9-2.5-2.5-3.4-4.9l-3.4-9H1049.8z M1067.9,51.6c-0.4-1.2-0.8-2.3-1.2-3.2c-0.4-1-0.8-2.1-1.3-3.4
			c-0.5-1.3-0.9-2.5-1.4-3.8l-3.9-10.4l-7.9,20.8H1067.9z"/>
		<path class="st16" d="M1120.2,77c-4.3,0-8.3-0.7-11.9-2.2c-3.6-1.4-6.7-3.5-9.3-6.1c-2.6-2.6-4.6-5.8-6-9.4
			c-1.4-3.7-2.2-7.7-2.2-12c0-4.4,0.7-8.4,2.2-12c1.4-3.7,3.5-6.8,6.1-9.4c2.6-2.6,5.7-4.7,9.3-6.1c3.6-1.5,7.6-2.2,12-2.2
			c3.8,0,7,0.5,9.8,1.4c2.8,0.9,5,2,6.8,3.4c1.8,1.3,3.1,2.7,4,4.2c0.9,1.5,1.3,2.8,1.3,4c0,1.4-0.4,2.6-1.1,3.5
			c-0.8,0.9-1.6,1.6-2.5,2.1c-0.9,0.5-1.8,0.8-2.6,1c-0.8,0.1-1.2,0.2-1.3,0c-1.4-2.5-3.4-4.4-5.9-5.7c-2.5-1.4-5.2-2-8.2-2
			c-2.4,0-4.5,0.4-6.6,1.3c-2,0.9-3.8,2.1-5.3,3.7c-1.5,1.6-2.6,3.5-3.4,5.7c-0.8,2.2-1.2,4.6-1.2,7.3s0.4,5.1,1.2,7.3
			c0.8,2.2,2,4.1,3.5,5.7s3.3,2.8,5.3,3.7s4.3,1.3,6.7,1.3c3.4,0,6.3-0.8,8.8-2.3c2.5-1.5,4.3-3.7,5.4-6.4c0.1-0.1,0.5-0.1,1.3,0
			c0.8,0.1,1.7,0.5,2.7,1c1,0.5,1.9,1.2,2.7,2.1c0.8,0.9,1.2,2.1,1.2,3.5c0,1.2-0.5,2.7-1.4,4.2c-0.9,1.6-2.3,3.1-4.2,4.5
			s-4.2,2.6-7.1,3.6C1127.5,76.5,1124.1,77,1120.2,77z"/>
		<path class="st16" d="M1163.7,61.3l-3.5,9.2c-0.8,2.2-1.9,3.8-3.2,4.7c-1.3,0.9-2.6,1.3-4,1.3c-0.9,0-1.8-0.1-2.7-0.4
			c-0.9-0.3-1.7-0.7-2.3-1.1c-0.6-0.4-1.1-0.9-1.5-1.3c-0.4-0.4-0.5-0.8-0.4-1.1l19.5-50.4c0.4-1.2,1.1-2.1,2.3-2.8
			c1.2-0.7,3.2-1.1,6.2-1.1c1.5,0,2.7,0.1,3.7,0.3c1,0.2,1.8,0.4,2.4,0.8c0.6,0.4,1.1,0.8,1.5,1.2c0.4,0.5,0.6,1,0.8,1.6l20,50.4
			c0.1,0.2,0,0.6-0.4,1.1c-0.4,0.5-0.9,0.9-1.5,1.4c-0.7,0.4-1.5,0.8-2.3,1.1c-0.9,0.3-1.8,0.5-2.8,0.5c-1.4,0-2.8-0.4-4.2-1.3
			c-1.4-0.9-2.5-2.5-3.4-4.9l-3.4-9H1163.7z M1181.9,51.6c-0.4-1.2-0.8-2.3-1.2-3.2c-0.4-1-0.8-2.1-1.3-3.4
			c-0.5-1.3-0.9-2.5-1.4-3.8l-3.9-10.4l-7.9,20.8H1181.9z"/>
		<path class="st16" d="M1215.7,75.9c-2.1,0-3.8-0.7-5.2-2.1c-1.4-1.4-2.1-3.1-2.1-5.1V26c0-2.3,0.6-4.1,1.9-5.3
			c1.3-1.3,2.9-1.9,4.9-1.9h14.4c4.8,0,9.1,0.6,12.9,1.9c3.8,1.3,7,3.2,9.7,5.6c2.7,2.4,4.7,5.4,6.1,8.9c1.4,3.5,2.1,7.5,2.1,11.9
			s-0.7,8.4-2.2,12c-1.4,3.6-3.5,6.6-6.2,9.1c-2.7,2.5-5.9,4.4-9.8,5.7c-3.9,1.3-8.2,2-13,2H1215.7z M1229.3,64.7
			c5.7,0,10.2-1.5,13.4-4.6c3.2-3.1,4.9-7.4,4.9-13c0-5.5-1.6-9.8-4.8-12.8c-3.2-3-7.6-4.5-13.3-4.5h-8.1v34.9H1229.3z"/>
		<path class="st16" d="M1275.6,75.9c-2.1,0-3.8-0.6-5-1.9c-1.2-1.2-1.8-3-1.8-5.3V26c0-2.3,0.6-4.1,1.8-5.3c1.2-1.3,2.9-1.9,5-1.9
			h31.9c2.1,0,3.6,0.5,4.5,1.5s1.5,2.3,1.5,4v0.4c0,3.7-2,5.5-6,5.5h-25.6v11.3h18.7c2.1,0,3.7,0.4,4.6,1.3c0.9,0.9,1.4,2.1,1.4,3.7
			v0.4c0,3.5-2,5.3-6,5.3h-18.7v12.5h26.1c4,0,6,1.7,6,5.1v0.5c0,3.8-2,5.7-6,5.7H1275.6z"/>
		<path class="st16" d="M1326.9,76.2c-1.8,0-3.1-0.5-3.9-1.5c-0.8-1-1.2-2.5-1.2-4.4V24.9c0-2.1,0.6-3.7,1.7-4.9
			c1.1-1.1,2.7-1.7,4.8-1.7h3.6c2,0,3.4,0.3,4.3,1c0.9,0.7,1.7,1.9,2.5,3.6l11.6,27.1l11.7-27.1c0.8-1.8,1.7-3,2.6-3.6
			c0.9-0.6,2.2-1,4.1-1h3.4c2.1,0,3.8,0.6,4.9,1.7c1.1,1.1,1.7,2.7,1.7,4.9v45.4c0,1.9-0.4,3.4-1.1,4.4c-0.8,1-2.1,1.5-4,1.5h-2
			c-3.4,0-5.1-2-5.1-5.9v-34l-9.5,23.1c-0.2,0.5-0.5,1-0.7,1.5c-0.2,0.5-0.6,0.9-1,1.3c-0.4,0.4-1,0.7-1.8,0.9
			c-0.8,0.2-1.8,0.3-3.1,0.3c-1.3,0-2.3-0.1-3.1-0.3c-0.8-0.2-1.4-0.5-1.8-0.8c-0.4-0.4-0.7-0.8-1-1.3c-0.2-0.5-0.5-1-0.7-1.6
			l-9.5-22.7v33.6c0,1.9-0.4,3.4-1.1,4.4c-0.8,1-2.1,1.5-4,1.5H1326.9z"/>
		<path class="st16" d="M1416.9,70.3c0,3.9-1.9,5.9-5.7,5.9h-1.8c-3.7,0-5.6-2-5.6-5.9V52.9l-20-29.5c-0.1-0.2,0-0.5,0.2-1.1
			c0.3-0.6,0.7-1.1,1.4-1.7c0.6-0.6,1.5-1.1,2.7-1.5c1.1-0.5,2.5-0.7,4.1-0.7c1.2,0,2.3,0.4,3.4,1.1c1.1,0.7,2,1.9,2.8,3.4l12,19.6
			l12.2-19.5c1-1.7,2-2.9,3.1-3.6c1.1-0.7,2.1-1,3.2-1c1.5,0,2.7,0.2,3.8,0.7c1,0.5,1.9,1,2.6,1.6c0.7,0.6,1.1,1.1,1.4,1.7
			s0.3,0.9,0.2,1.1l-19.9,29.5V70.3z"/>
	</g>
	<g class="st8">
		<path class="st17" d="M621.6,162.9c-1.9,3.3-4.6,5.9-8.2,7.7c-3.6,1.8-7.8,2.7-12.6,2.7c-4.3,0-8.1-0.8-11.6-2.3
			c-3.4-1.5-6.4-3.6-8.8-6.4c-2.4-2.7-4.3-6-5.6-9.7c-1.3-3.8-2-7.8-2-12.2c0-4.5,0.7-8.7,2.2-12.4c1.5-3.8,3.5-7,6.1-9.7
			c2.6-2.7,5.7-4.8,9.3-6.4c3.6-1.5,7.6-2.3,12-2.3c3.5,0,6.7,0.4,9.4,1.3c2.7,0.9,5,2,6.9,3.2c1.9,1.3,3.3,2.5,4.3,3.9
			c1,1.3,1.5,2.4,1.5,3.3c0,0.9-0.2,1.5-0.5,2.1c-0.4,0.5-0.8,0.9-1.2,1.1c-0.5,0.2-0.9,0.4-1.3,0.4c-0.4,0-0.6,0-0.7,0
			c-0.9-1.6-2.1-3.1-3.4-4.3c-1.4-1.2-2.9-2.2-4.5-3.1c-1.6-0.8-3.4-1.4-5.2-1.9c-1.8-0.4-3.6-0.6-5.4-0.6c-3.4,0-6.5,0.6-9.4,1.8
			s-5.3,2.9-7.3,5.2c-2,2.2-3.6,4.9-4.7,8c-1.1,3.1-1.7,6.5-1.7,10.3c0,3.7,0.5,7,1.5,10.2c1,3.1,2.5,5.8,4.4,8c1.9,2.2,4.3,4,7,5.3
			c2.7,1.3,5.9,1.9,9.4,1.9c2.7,0,5.2-0.4,7.5-1.1c2.3-0.7,4.3-1.8,6-3.1c1.7-1.3,3.2-2.9,4.3-4.8c1.1-1.9,1.8-3.9,2.2-6.2v-5.1H605
			c-2.3,0-3.4-0.9-3.4-2.6v-0.4c0-1.8,1.1-2.7,3.4-2.7h17.6c1.3,0,2.4,0.4,3.3,1.3c0.9,0.9,1.3,2,1.3,3.2v25.4
			c0,0.1-0.2,0.3-0.5,0.4c-0.4,0.2-0.9,0.2-1.5,0.2c-1,0-1.9-0.4-2.5-1.1s-1-2.3-1-4.9V162.9z"/>
		<path class="st17" d="M687.2,169.7c0.1,0.1,0.1,0.3,0,0.6c-0.2,0.3-0.4,0.6-0.7,1c-0.3,0.3-0.7,0.6-1.2,0.9
			c-0.5,0.3-1.1,0.4-1.7,0.4c-0.6,0-1.2-0.2-1.9-0.5c-0.6-0.3-1.3-0.9-2-1.7l-19.2-23.1H653v22.4c0,0.8-0.2,1.5-0.7,2
			c-0.5,0.5-1.1,0.8-2.1,0.8h-0.7c-1.8,0-2.7-0.9-2.7-2.8v-53.3c0-1,0.3-1.8,1-2.5c0.7-0.7,1.5-1,2.5-1h16.3c7,0,12.2,1.4,15.9,4.3
			c3.6,2.8,5.4,7.1,5.4,12.9c0,5.4-1.7,9.6-5,12.5c-3.4,3-8.2,4.5-14.6,4.7L687.2,169.7z M667.2,142c4.9,0,8.6-1.1,10.9-3.2
			c2.3-2.1,3.5-5,3.5-8.5c0-7.8-4.9-11.7-14.7-11.7H653V142H667.2z"/>
		<path class="st17" d="M732.6,173.3c-4.3,0-8.3-0.7-11.9-2.2c-3.6-1.5-6.7-3.6-9.3-6.3c-2.6-2.7-4.6-5.9-6-9.7
			c-1.4-3.8-2.2-7.9-2.2-12.4c0-4.5,0.7-8.7,2.2-12.4c1.5-3.8,3.5-7,6.1-9.7c2.6-2.7,5.7-4.8,9.3-6.4c3.6-1.5,7.6-2.3,11.9-2.3
			c4.3,0,8.3,0.7,11.9,2.2c3.6,1.5,6.7,3.6,9.3,6.3c2.6,2.7,4.6,5.9,6,9.7c1.4,3.8,2.2,7.9,2.2,12.4s-0.7,8.7-2.2,12.4
			c-1.4,3.8-3.5,7-6.1,9.7c-2.6,2.7-5.8,4.8-9.4,6.3C740.9,172.6,736.9,173.3,732.6,173.3z M732.7,167.9c3.4,0,6.4-0.6,9.2-1.8
			c2.8-1.2,5.2-2.9,7.3-5.2c2-2.2,3.6-4.9,4.8-8c1.1-3.1,1.7-6.5,1.7-10.2c0-3.7-0.6-7-1.7-10.2c-1.2-3.1-2.8-5.8-4.8-8.1
			c-2-2.3-4.5-4-7.3-5.3c-2.8-1.3-5.9-1.9-9.3-1.9c-3.4,0-6.4,0.6-9.2,1.9c-2.8,1.3-5.2,3-7.3,5.2c-2,2.2-3.6,4.9-4.8,8
			c-1.1,3.1-1.7,6.5-1.7,10.2c0,3.7,0.6,7.1,1.7,10.2c1.2,3.1,2.8,5.8,4.8,8c2,2.3,4.5,4,7.3,5.3
			C726.3,167.3,729.4,167.9,732.7,167.9z"/>
		<path class="st17" d="M802.7,173.3c-7.5,0-13.2-2.1-17.1-6.2c-3.9-4.1-5.9-10.2-5.9-18.2v-33.4c0-1.9,0.9-2.8,2.7-2.8h0.8
			c1.8,0,2.7,0.9,2.7,2.8v33c0,12.9,5.6,19.3,16.9,19.3c11.3,0,16.9-6.5,16.9-19.4v-32.9c0-1.9,0.9-2.8,2.6-2.8h1.1
			c1.6,0,2.5,0.9,2.5,2.8v33.1c0,8.1-2,14.2-5.9,18.4C816,171.2,810.2,173.3,802.7,173.3z"/>
		<path class="st17" d="M852.2,169.7c0,0.8-0.2,1.5-0.7,2c-0.5,0.5-1.1,0.8-2.1,0.8h-0.8c-1.8,0-2.7-0.9-2.7-2.8v-53.3
			c0-1,0.3-1.8,1-2.5c0.7-0.7,1.5-1,2.5-1h15.2c7,0,12.3,1.6,16.1,4.7c3.8,3.1,5.7,7.5,5.7,13.3c0,5.9-1.9,10.4-5.7,13.5
			c-3.8,3.1-9.4,4.7-16.8,4.7h-11.7V169.7z M864.4,143.7c5.2,0,9.1-1.1,11.7-3.2c2.6-2.1,3.9-5.2,3.9-9.3c0-8.4-5.1-12.5-15.3-12.5
			h-12.5v25.1H864.4z"/>
		<path class="st17" d="M906.9,172.2c-1,0-1.8-0.3-2.5-1c-0.7-0.7-1-1.5-1-2.5v-52.3c0-1,0.3-1.8,1-2.5c0.7-0.7,1.5-1,2.5-1h35.4
			c1.9,0,2.8,0.9,2.8,2.6v0.5c0,1.7-0.9,2.6-2.8,2.6h-32.7v20.4h26.2c1.9,0,2.8,0.9,2.8,2.6v0.4c0,1.7-0.9,2.6-2.8,2.6h-26.2v22
			h33.2c1.9,0,2.8,0.8,2.8,2.5v0.5c0,1.8-0.9,2.7-2.8,2.7H906.9z"/>
		<path class="st17" d="M1003.5,173.3c-3.3,0-6.3-0.4-9-1.2c-2.7-0.8-5-1.8-6.8-3c-1.9-1.2-3.3-2.5-4.3-3.8c-1-1.3-1.6-2.6-1.6-3.7
			c0-0.7,0.2-1.2,0.5-1.7s0.8-0.9,1.2-1.2c0.5-0.3,0.9-0.6,1.2-0.7c0.4-0.1,0.6-0.2,0.6-0.1c1.6,2.7,3.9,5.1,6.9,7
			c3,2,6.7,2.9,11.1,2.9c4.6,0,8.1-1,10.7-2.9c2.6-1.9,3.8-4.6,3.8-8.1c0-2-0.4-3.6-1.3-4.9c-0.9-1.3-2.1-2.4-3.6-3.2
			c-1.5-0.9-3.3-1.6-5.2-2.2c-2-0.6-4-1.1-6.1-1.6c-2.3-0.5-4.5-1.2-6.6-1.9c-2.2-0.7-4.1-1.7-5.8-2.9c-1.7-1.2-3.1-2.8-4.2-4.8
			c-1.1-1.9-1.6-4.3-1.6-7.3c0-2.3,0.5-4.5,1.5-6.5c1-2,2.4-3.7,4.2-5.2c1.8-1.5,3.9-2.6,6.3-3.4c2.4-0.8,5.1-1.2,7.9-1.2
			c3,0,5.8,0.4,8.2,1.1c2.4,0.7,4.5,1.6,6.2,2.6c1.7,1,3,2.2,3.8,3.3c0.9,1.2,1.3,2.3,1.3,3.2c0,0.7-0.2,1.3-0.5,1.7
			c-0.4,0.5-0.8,0.9-1.2,1.2c-0.5,0.3-0.9,0.6-1.2,0.7s-0.6,0.2-0.6,0.1c-1.4-2.4-3.5-4.5-6.2-6.1c-2.7-1.6-6-2.5-9.6-2.5
			c-4.2,0-7.5,1-10.1,2.9c-2.6,2-3.8,4.5-3.8,7.8c0,1.9,0.4,3.4,1.1,4.7c0.7,1.2,1.8,2.2,3.1,3c1.3,0.8,2.9,1.4,4.8,2
			c1.9,0.5,3.9,1.1,6.2,1.6c2.4,0.5,4.7,1.2,7,2c2.3,0.8,4.4,1.8,6.2,3.1c1.8,1.3,3.3,2.9,4.4,4.9c1.1,2,1.7,4.4,1.7,7.4
			c0,2.5-0.5,4.8-1.5,6.8c-1,2-2.4,3.8-4.2,5.3c-1.8,1.5-4,2.6-6.5,3.4C1009.4,172.9,1006.6,173.3,1003.5,173.3z"/>
		<path class="st17" d="M1068.7,173.3c-4.3,0-8.3-0.7-11.9-2.2c-3.6-1.5-6.7-3.6-9.3-6.3c-2.6-2.7-4.6-5.9-6-9.7
			c-1.4-3.8-2.2-7.9-2.2-12.4c0-4.5,0.7-8.7,2.2-12.4c1.5-3.8,3.5-7,6.1-9.7c2.6-2.7,5.7-4.8,9.3-6.4c3.6-1.5,7.6-2.3,12-2.3
			c3.5,0,6.7,0.4,9.4,1.3c2.7,0.9,5,2,6.9,3.2c1.9,1.3,3.3,2.5,4.3,3.9c1,1.3,1.5,2.4,1.5,3.3c0,0.8-0.2,1.5-0.5,2
			c-0.4,0.5-0.8,0.9-1.2,1.2c-0.5,0.3-0.9,0.5-1.2,0.5s-0.6,0.1-0.6,0c-0.9-1.6-2.1-3.1-3.5-4.3c-1.4-1.2-2.9-2.3-4.6-3.2
			c-1.6-0.9-3.4-1.5-5.2-1.9c-1.8-0.4-3.6-0.6-5.4-0.6c-3.4,0-6.5,0.6-9.3,1.9c-2.8,1.3-5.3,3-7.3,5.2c-2,2.2-3.6,4.9-4.8,8
			c-1.1,3.1-1.7,6.5-1.7,10.2c0,3.7,0.6,7,1.7,10.2c1.2,3.1,2.8,5.8,4.9,8.1c2.1,2.3,4.5,4,7.4,5.3c2.8,1.3,5.9,1.9,9.3,1.9
			c2.2,0,4.3-0.3,6.3-0.8c2-0.5,3.9-1.3,5.5-2.3c1.7-1,3.1-2.2,4.4-3.7c1.2-1.4,2.2-3,2.9-4.8c0-0.1,0.2-0.1,0.6,0
			c0.4,0.1,0.9,0.3,1.4,0.5c0.5,0.3,1,0.7,1.4,1.2c0.4,0.5,0.6,1.2,0.6,2c0,1-0.5,2.2-1.5,3.7s-2.5,3-4.5,4.4
			c-2,1.4-4.4,2.7-7.3,3.7C1076,172.8,1072.6,173.3,1068.7,173.3z"/>
		<path class="st17" d="M1136,173.3c-4.3,0-8.3-0.7-11.9-2.2c-3.6-1.5-6.7-3.6-9.3-6.3c-2.6-2.7-4.6-5.9-6-9.7
			c-1.4-3.8-2.2-7.9-2.2-12.4c0-4.5,0.7-8.7,2.2-12.4c1.5-3.8,3.5-7,6.1-9.7c2.6-2.7,5.7-4.8,9.3-6.4c3.6-1.5,7.6-2.3,11.9-2.3
			c4.3,0,8.3,0.7,11.9,2.2c3.6,1.5,6.7,3.6,9.3,6.3c2.6,2.7,4.6,5.9,6,9.7c1.4,3.8,2.2,7.9,2.2,12.4s-0.7,8.7-2.2,12.4
			c-1.4,3.8-3.5,7-6.1,9.7c-2.6,2.7-5.8,4.8-9.4,6.3C1144.3,172.6,1140.3,173.3,1136,173.3z M1136.2,167.9c3.4,0,6.4-0.6,9.2-1.8
			c2.8-1.2,5.2-2.9,7.3-5.2c2-2.2,3.6-4.9,4.8-8c1.1-3.1,1.7-6.5,1.7-10.2c0-3.7-0.6-7-1.7-10.2c-1.2-3.1-2.8-5.8-4.8-8.1
			c-2-2.3-4.5-4-7.3-5.3c-2.8-1.3-5.9-1.9-9.3-1.9c-3.4,0-6.4,0.6-9.2,1.9c-2.8,1.3-5.2,3-7.3,5.2c-2,2.2-3.6,4.9-4.8,8
			c-1.1,3.1-1.7,6.5-1.7,10.2c0,3.7,0.6,7.1,1.7,10.2c1.2,3.1,2.8,5.8,4.8,8c2,2.3,4.5,4,7.3,5.3
			C1129.7,167.3,1132.8,167.9,1136.2,167.9z"/>
		<path class="st17" d="M1187.5,172.2c-1,0-1.8-0.3-2.5-1c-0.7-0.7-1-1.5-1-2.5v-53.3c0-1.9,0.9-2.8,2.7-2.8h0.8
			c1.8,0,2.7,0.9,2.7,2.8v51h28.6c1.9,0,2.8,0.9,2.8,2.7v0.5c0,1.8-0.9,2.7-2.8,2.7H1187.5z"/>
		<path class="st17" d="M1248.2,152.9l-6.4,16.8c-0.4,1.1-1,1.8-1.6,2.2c-0.6,0.4-1.3,0.6-2,0.6c-0.9,0-1.8-0.2-2.5-0.7
			c-0.8-0.5-1.1-0.9-1-1.1l21.7-56c0.3-0.8,0.8-1.4,1.5-1.7c0.7-0.4,1.7-0.5,3.2-0.5s2.5,0.2,3.2,0.5c0.7,0.4,1.2,0.9,1.5,1.7
			l21.7,56c0.1,0.2-0.2,0.6-1,1.1c-0.8,0.5-1.6,0.7-2.6,0.7c-0.7,0-1.4-0.2-2.1-0.6c-0.7-0.4-1.2-1.1-1.6-2.2l-6.4-16.8H1248.2z
			 M1271.7,147.4l-10.6-27.9l-10.7,27.9H1271.7z"/>
		<path class="st17" d="M1306.5,172.6c-1.8,0-2.7-0.9-2.7-2.8v-54.3c0-1.9,0.9-2.8,2.7-2.8h0.8c1.8,0,2.7,0.9,2.7,2.8v54.3
			c0,1.9-0.9,2.8-2.7,2.8H1306.5z"/>
		<path class="st17" d="M1372.3,169.7c0.1,0.1,0.1,0.3,0,0.6c-0.2,0.3-0.4,0.6-0.7,1c-0.3,0.3-0.7,0.6-1.2,0.9s-1.1,0.4-1.7,0.4
			c-0.6,0-1.2-0.2-1.9-0.5s-1.3-0.9-2-1.7l-19.2-23.1h-7.4v22.4c0,0.8-0.2,1.5-0.7,2c-0.5,0.5-1.1,0.8-2.1,0.8h-0.7
			c-1.8,0-2.7-0.9-2.7-2.8v-53.3c0-1,0.3-1.8,1-2.5c0.7-0.7,1.5-1,2.5-1h16.3c7,0,12.2,1.4,15.9,4.3c3.6,2.8,5.4,7.1,5.4,12.9
			c0,5.4-1.7,9.6-5,12.5c-3.4,3-8.2,4.5-14.6,4.7L1372.3,169.7z M1352.3,142c4.9,0,8.6-1.1,10.9-3.2c2.3-2.1,3.5-5,3.5-8.5
			c0-7.8-4.9-11.7-14.7-11.7h-13.8V142H1352.3z"/>
		<path class="st17" d="M1394.2,172.2c-1,0-1.8-0.3-2.5-1c-0.7-0.7-1-1.5-1-2.5v-52.3c0-1,0.3-1.8,1-2.5c0.7-0.7,1.5-1,2.5-1h35.4
			c1.9,0,2.8,0.9,2.8,2.6v0.5c0,1.7-0.9,2.6-2.8,2.6H1397v20.4h26.2c1.9,0,2.8,0.9,2.8,2.6v0.4c0,1.7-0.9,2.6-2.8,2.6H1397v22h33.2
			c1.9,0,2.8,0.8,2.8,2.5v0.5c0,1.8-0.9,2.7-2.8,2.7H1394.2z"/>
	</g>
</g>
</svg>
